drwxrwx---. 2 gpsndlhc sndlhc-cg 4096 Feb 16  2024 RUN1_W5_B4
drwxrwx---. 2 gpsndlhc sndlhc-cg 4096 Jul 19  2023 RUN1_W5_B4/P1
drwxrwx---. 2 gpsndlhc sndlhc-cg 4096 Sep  5  2023 RUN1_W5_B4/P10
drwxrwx---. 2 gpsndlhc sndlhc-cg 4096 Sep  7  2023 RUN1_W5_B4/P11
drwxrwx---. 2 gpsndlhc sndlhc-cg 4096 Sep  8  2023 RUN1_W5_B4/P12
drwxrwx---. 2 gpsndlhc sndlhc-cg 4096 Sep 12  2023 RUN1_W5_B4/P13
drwxrwx---. 2 gpsndlhc sndlhc-cg 4096 Sep 13  2023 RUN1_W5_B4/P14
drwxrwx---. 2 gpsndlhc sndlhc-cg 4096 Sep 14  2023 RUN1_W5_B4/P15
drwxrwx---. 2 gpsndlhc sndlhc-cg 4096 Sep 15  2023 RUN1_W5_B4/P16
drwxrwx---. 2 gpsndlhc sndlhc-cg 4096 Sep 18  2023 RUN1_W5_B4/P17
drwxrwx---. 2 gpsndlhc sndlhc-cg 4096 Sep 19  2023 RUN1_W5_B4/P18
drwxrwx---. 2 gpsndlhc sndlhc-cg 4096 Sep 20  2023 RUN1_W5_B4/P19
drwxrwx---. 2 gpsndlhc sndlhc-cg 4096 Jul 21  2023 RUN1_W5_B4/P2
drwxrwx---. 2 gpsndlhc sndlhc-cg 4096 Sep 21  2023 RUN1_W5_B4/P20
drwxrwx---. 2 gpsndlhc sndlhc-cg 4096 Sep 22  2023 RUN1_W5_B4/P21
drwxrwx---. 2 gpsndlhc sndlhc-cg 4096 Sep 25  2023 RUN1_W5_B4/P22
drwxrwx---. 2 gpsndlhc sndlhc-cg 4096 Sep 26  2023 RUN1_W5_B4/P23
drwxrwx---. 2 gpsndlhc sndlhc-cg 4096 Sep 27  2023 RUN1_W5_B4/P24
drwxrwx---. 2 gpsndlhc sndlhc-cg 4096 Sep 28  2023 RUN1_W5_B4/P25
drwxrwx---. 2 gpsndlhc sndlhc-cg 4096 Sep 29  2023 RUN1_W5_B4/P26
drwxrwx---. 2 gpsndlhc sndlhc-cg 4096 Oct  2  2023 RUN1_W5_B4/P27
drwxrwx---. 2 gpsndlhc sndlhc-cg 4096 Oct  3  2023 RUN1_W5_B4/P28
drwxrwx---. 2 gpsndlhc sndlhc-cg 4096 Oct  5  2023 RUN1_W5_B4/P29
drwxrwx---. 2 gpsndlhc sndlhc-cg 4096 Jul 27  2023 RUN1_W5_B4/P3
drwxrwx---. 2 gpsndlhc sndlhc-cg 4096 Oct  9  2023 RUN1_W5_B4/P30
drwxrwx---. 2 gpsndlhc sndlhc-cg 4096 Oct 10  2023 RUN1_W5_B4/P31
drwxrwx---. 2 gpsndlhc sndlhc-cg 4096 Oct 11  2023 RUN1_W5_B4/P32
drwxrwx---. 2 gpsndlhc sndlhc-cg 4096 Oct 13  2023 RUN1_W5_B4/P33
drwxrwx---. 2 gpsndlhc sndlhc-cg 4096 Oct 19  2023 RUN1_W5_B4/P34
drwxrwx---. 2 gpsndlhc sndlhc-cg 4096 Oct 20  2023 RUN1_W5_B4/P35
drwxrwx---. 2 gpsndlhc sndlhc-cg 4096 Oct 24  2023 RUN1_W5_B4/P36
drwxrwx---. 2 gpsndlhc sndlhc-cg 4096 Oct 25  2023 RUN1_W5_B4/P37
drwxrwx---. 2 gpsndlhc sndlhc-cg 4096 Oct 31  2023 RUN1_W5_B4/P38
drwxrwx---. 2 gpsndlhc sndlhc-cg 4096 Nov  2  2023 RUN1_W5_B4/P39
drwxrwx---. 2 gpsndlhc sndlhc-cg 4096 Aug 22  2023 RUN1_W5_B4/P4
drwxrwx---. 2 gpsndlhc sndlhc-cg 4096 Nov  3  2023 RUN1_W5_B4/P40
drwxrwx---. 2 gpsndlhc sndlhc-cg 4096 Nov  6  2023 RUN1_W5_B4/P41
drwxrwx---. 2 gpsndlhc sndlhc-cg 4096 Nov 10  2023 RUN1_W5_B4/P42
drwxrwx---. 2 gpsndlhc sndlhc-cg 4096 Nov 13  2023 RUN1_W5_B4/P43
drwxrwx---. 2 gpsndlhc sndlhc-cg 4096 Nov 14  2023 RUN1_W5_B4/P44
drwxrwx---. 2 fmei sndlhc-cg 4096 Nov 20  2023 RUN1_W5_B4/P45
drwxrwx---. 2 fmei sndlhc-cg 4096 Jan 12  2024 RUN1_W5_B4/P46
drwxrwx---. 2 fmei sndlhc-cg 4096 Jan 15  2024 RUN1_W5_B4/P47
drwxrwx---. 2 fmei sndlhc-cg 4096 Jan 16  2024 RUN1_W5_B4/P48
drwxrwx---. 2 fmei sndlhc-cg 4096 Jan 17  2024 RUN1_W5_B4/P49
drwxrwx---. 2 gpsndlhc sndlhc-cg 4096 Aug 23  2023 RUN1_W5_B4/P5
drwxrwx---. 2 fmei sndlhc-cg 4096 Jan 18  2024 RUN1_W5_B4/P50
drwxrwx---. 2 fmei sndlhc-cg 4096 Jan 30  2024 RUN1_W5_B4/P51
drwxrwx---. 2 fmei sndlhc-cg 4096 Jan 31  2024 RUN1_W5_B4/P52
drwxrwx---. 2 fmei sndlhc-cg 4096 Feb  1  2024 RUN1_W5_B4/P53
drwxrwx---. 2 fmei sndlhc-cg 4096 Feb  5  2024 RUN1_W5_B4/P54
drwxrwx---. 2 fmei sndlhc-cg 4096 Feb 16  2024 RUN1_W5_B4/P55
drwxrwx---. 2 fmei sndlhc-cg 4096 Feb 16  2024 RUN1_W5_B4/P56
drwxrwx---. 2 fmei sndlhc-cg 4096 Feb 16  2024 RUN1_W5_B4/P57
drwxrwx---. 2 fmei sndlhc-cg 4096 Feb 16  2024 RUN1_W5_B4/P58
drwxrwx---. 2 fmei sndlhc-cg 4096 Feb 16  2024 RUN1_W5_B4/P59
drwxrwx---. 2 gpsndlhc sndlhc-cg 4096 Aug 28  2023 RUN1_W5_B4/P6
drwxrwx---. 2 fmei sndlhc-cg 4096 Feb 16  2024 RUN1_W5_B4/P60
drwxrwx---. 2 gpsndlhc sndlhc-cg 4096 Aug 29  2023 RUN1_W5_B4/P7
drwxrwx---. 2 gpsndlhc sndlhc-cg 4096 Aug 30  2023 RUN1_W5_B4/P8
drwxrwx---. 2 gpsndlhc sndlhc-cg 4096 Aug 31  2023 RUN1_W5_B4/P9
