drw-r-----. 2 snd2cern sndlhc-cg 4096 Feb 19  2024 SND
drw-r-----. 2 snd2cern sndlhc-cg 4096 Mar 13  2023 SND/RUN0_TEST_scanning
drw-r-----. 2 snd2cern sndlhc-cg 4096 Mar 13  2023 SND/RUN0_W3_B1_15
drw-r-----. 2 snd2cern sndlhc-cg 4096 Mar 13  2023 SND/RUN0_W3_B1_15_2cm
drw-r-----. 2 snd2cern sndlhc-cg 4096 Mar 13  2023 SND/RUN0_W3_B1_15_2cm_rotated
drw-r-----. 2 snd2cern sndlhc-cg 4096 Feb  1  2023 SND/RUN0_W3_B1_15_testemil
drw-r-----. 2 snd2cern sndlhc-cg 4096 Feb  1  2023 SND/RUN0_W3_B1_15_testemil/P015
drw-r-----. 2 snd2cern sndlhc-cg 4096 Feb  7  2023 SND/RUN0_W3_B1_15_testfabio
drw-r-----. 2 snd2cern sndlhc-cg 4096 Feb 20  2023 SND/RUN0_W3_B1_15_testfabio/P015
drw-r-----. 2 snd2cern sndlhc-cg 4096 Mar 13  2023 SND/RUN0_W3_B1_15_testfabio/P015_2cm
drw-r-----. 2 snd2cern sndlhc-cg 4096 Dec 13  2022 SND/RUN0_W3_B1_15_testlosanna
drw-r-----. 2 snd2cern sndlhc-cg 4096 Sep 23 10:49 SND/RUN1
drw-r-----. 2 snd2cern sndlhc-cg 4096 Sep  5  2023 SND/RUN1/Errors
drw-r-----. 2 snd2cern sndlhc-cg 4096 Jul 18  2023 SND/RUN1/RUN1_W4_B1
dr--r-----. 2 snd2cern sndlhc-cg 4096 May 23  2023 SND/RUN1/RUN1_W4_B1/P001
dr--r-----. 2 snd2cern sndlhc-cg 4096 May 23  2023 SND/RUN1/RUN1_W4_B1/P002
dr--r-----. 2 snd2cern sndlhc-cg 4096 Feb 24  2023 SND/RUN1/RUN1_W4_B1/P002_stop
dr--r-----. 2 snd2cern sndlhc-cg 4096 Feb 24  2023 SND/RUN1/RUN1_W4_B1/P002_stop/P002
dr--r-----. 2 snd2cern sndlhc-cg 4096 May 23  2023 SND/RUN1/RUN1_W4_B1/P003
dr--r-----. 2 snd2cern sndlhc-cg 4096 May 23  2023 SND/RUN1/RUN1_W4_B1/P004
dr--r-----. 2 snd2cern sndlhc-cg 4096 May 23  2023 SND/RUN1/RUN1_W4_B1/P005
dr--r-----. 2 snd2cern sndlhc-cg 4096 May 23  2023 SND/RUN1/RUN1_W4_B1/P006
dr--r-----. 2 snd2cern sndlhc-cg 4096 May 23  2023 SND/RUN1/RUN1_W4_B1/P007
dr--r-----. 2 snd2cern sndlhc-cg 4096 May 23  2023 SND/RUN1/RUN1_W4_B1/P008
dr--r-----. 2 snd2cern sndlhc-cg 4096 May 23  2023 SND/RUN1/RUN1_W4_B1/P009
dr--r-----. 2 snd2cern sndlhc-cg 4096 Jun 12  2023 SND/RUN1/RUN1_W4_B1/P010
dr--r-----. 2 snd2cern sndlhc-cg 4096 Jun 12  2023 SND/RUN1/RUN1_W4_B1/P011
dr--r-----. 2 snd2cern sndlhc-cg 4096 Jun 12  2023 SND/RUN1/RUN1_W4_B1/P012
dr--r-----. 2 snd2cern sndlhc-cg 4096 Jun 12  2023 SND/RUN1/RUN1_W4_B1/P013
dr--r-----. 2 snd2cern sndlhc-cg 4096 Jun 12  2023 SND/RUN1/RUN1_W4_B1/P013_stopped
dr--r-----. 2 snd2cern sndlhc-cg 4096 Jun 12  2023 SND/RUN1/RUN1_W4_B1/P014
dr--r-----. 2 snd2cern sndlhc-cg 4096 Jun 12  2023 SND/RUN1/RUN1_W4_B1/P015
dr--r-----. 2 snd2cern sndlhc-cg 4096 Jun 12  2023 SND/RUN1/RUN1_W4_B1/P016
dr--r-----. 2 snd2cern sndlhc-cg 4096 Oct 24  2023 SND/RUN1/RUN1_W4_B1/P016_rescan
dr--r-----. 2 snd2cern sndlhc-cg 4096 Jun 12  2023 SND/RUN1/RUN1_W4_B1/P017
dr--r-----. 2 snd2cern sndlhc-cg 4096 Jun 12  2023 SND/RUN1/RUN1_W4_B1/P018
dr--r-----. 2 snd2cern sndlhc-cg 4096 Jun 12  2023 SND/RUN1/RUN1_W4_B1/P019
dr--r-----. 2 snd2cern sndlhc-cg 4096 Jun 21  2023 SND/RUN1/RUN1_W4_B1/P020
dr--r-----. 2 snd2cern sndlhc-cg 4096 Jun 21  2023 SND/RUN1/RUN1_W4_B1/P021
dr--r-----. 2 snd2cern sndlhc-cg 4096 Jun 21  2023 SND/RUN1/RUN1_W4_B1/P022
dr--r-----. 2 snd2cern sndlhc-cg 4096 Jun 21  2023 SND/RUN1/RUN1_W4_B1/P023
dr--r-----. 2 snd2cern sndlhc-cg 4096 Jun 21  2023 SND/RUN1/RUN1_W4_B1/P024
dr--r-----. 2 snd2cern sndlhc-cg 4096 Jun 21  2023 SND/RUN1/RUN1_W4_B1/P025
dr--r-----. 2 snd2cern sndlhc-cg 4096 Jun 29  2023 SND/RUN1/RUN1_W4_B1/P026
dr--r-----. 2 snd2cern sndlhc-cg 4096 Jun 29  2023 SND/RUN1/RUN1_W4_B1/P027
dr--r-----. 2 snd2cern sndlhc-cg 4096 Jun 29  2023 SND/RUN1/RUN1_W4_B1/P028
dr--r-----. 2 snd2cern sndlhc-cg 4096 Jun 29  2023 SND/RUN1/RUN1_W4_B1/P028_tutorialTanvi
dr--r-----. 2 snd2cern sndlhc-cg 4096 Jun 29  2023 SND/RUN1/RUN1_W4_B1/P029
dr--r-----. 2 snd2cern sndlhc-cg 4096 Oct 24  2023 SND/RUN1/RUN1_W4_B1/P029_bis
dr--r-----. 2 snd2cern sndlhc-cg 4096 Jun 29  2023 SND/RUN1/RUN1_W4_B1/P030
dr--r-----. 2 snd2cern sndlhc-cg 4096 Jun 29  2023 SND/RUN1/RUN1_W4_B1/P031
dr--r-----. 2 snd2cern sndlhc-cg 4096 Jun 29  2023 SND/RUN1/RUN1_W4_B1/P032
dr--r-----. 2 snd2cern sndlhc-cg 4096 Jun 29  2023 SND/RUN1/RUN1_W4_B1/P033
dr--r-----. 2 snd2cern sndlhc-cg 4096 Jul 15  2023 SND/RUN1/RUN1_W4_B1/P034
dr--r-----. 2 snd2cern sndlhc-cg 4096 Jul 15  2023 SND/RUN1/RUN1_W4_B1/P035
dr--r-----. 2 snd2cern sndlhc-cg 4096 Jul 15  2023 SND/RUN1/RUN1_W4_B1/P036
dr--r-----. 2 snd2cern sndlhc-cg 4096 Jul 15  2023 SND/RUN1/RUN1_W4_B1/P037
dr--r-----. 2 snd2cern sndlhc-cg 4096 Jul 15  2023 SND/RUN1/RUN1_W4_B1/P038
dr--r-----. 2 snd2cern sndlhc-cg 4096 Jul 15  2023 SND/RUN1/RUN1_W4_B1/P039
dr--r-----. 2 snd2cern sndlhc-cg 4096 Jul 15  2023 SND/RUN1/RUN1_W4_B1/P040
dr--r-----. 2 snd2cern sndlhc-cg 4096 Jul 31  2023 SND/RUN1/RUN1_W4_B1/P041
dr--r-----. 2 snd2cern sndlhc-cg 4096 Jul 31  2023 SND/RUN1/RUN1_W4_B1/P042
dr--r-----. 2 snd2cern sndlhc-cg 4096 Jul 31  2023 SND/RUN1/RUN1_W4_B1/P043
dr--r-----. 2 snd2cern sndlhc-cg 4096 Jul 31  2023 SND/RUN1/RUN1_W4_B1/P044
dr--r-----. 2 snd2cern sndlhc-cg 4096 Jul 31  2023 SND/RUN1/RUN1_W4_B1/P045
dr--r-----. 2 snd2cern sndlhc-cg 4096 Jul 31  2023 SND/RUN1/RUN1_W4_B1/P046
dr--r-----. 2 snd2cern sndlhc-cg 4096 Jul 31  2023 SND/RUN1/RUN1_W4_B1/P047
dr--r-----. 2 snd2cern sndlhc-cg 4096 Jul 31  2023 SND/RUN1/RUN1_W4_B1/P048
dr--r-----. 2 snd2cern sndlhc-cg 4096 Jul 31  2023 SND/RUN1/RUN1_W4_B1/P049
dr--r-----. 2 snd2cern sndlhc-cg 4096 Jul 31  2023 SND/RUN1/RUN1_W4_B1/P050
dr--r-----. 2 snd2cern sndlhc-cg 4096 Aug  3  2023 SND/RUN1/RUN1_W4_B1/P051
dr--r-----. 2 snd2cern sndlhc-cg 4096 Aug  3  2023 SND/RUN1/RUN1_W4_B1/P052
dr--r-----. 2 snd2cern sndlhc-cg 4096 Aug 10  2023 SND/RUN1/RUN1_W4_B1/P052_checkangles_rotated
dr--r-----. 2 snd2cern sndlhc-cg 4096 Aug 10  2023 SND/RUN1/RUN1_W4_B1/P052_checkangles_straight
dr--r-----. 2 snd2cern sndlhc-cg 4096 Aug  3  2023 SND/RUN1/RUN1_W4_B1/P053
dr--r-----. 2 snd2cern sndlhc-cg 4096 Aug  3  2023 SND/RUN1/RUN1_W4_B1/P054
dr--r-----. 2 snd2cern sndlhc-cg 4096 Aug  3  2023 SND/RUN1/RUN1_W4_B1/P055
dr--r-----. 2 snd2cern sndlhc-cg 4096 Aug  3  2023 SND/RUN1/RUN1_W4_B1/P056
dr--r-----. 2 snd2cern sndlhc-cg 4096 Aug  3  2023 SND/RUN1/RUN1_W4_B1/P057
drw-r-----. 2 vacharit sndlhc-cg 4096 Sep 23 10:20 SND/RUN1/RUN1_W4_B1_M
dr--r-----. 2 vacharit sndlhc-cg 4096 Sep 23 18:13 SND/RUN1/RUN1_W4_B1_M/p037
dr--r-----. 2 vacharit sndlhc-cg 4096 Sep 23 18:11 SND/RUN1/RUN1_W4_B1_M/p037/images
drwxr-xr-x. 2 vacharit sndlhc-cg 4096 Sep 23 18:12 SND/RUN1/RUN1_W4_B1_M/p037/images/side0
drwxr-xr-x. 2 vacharit sndlhc-cg 4096 Sep 23 18:12 SND/RUN1/RUN1_W4_B1_M/p037/images/side0/view0
drwxr-xr-x. 2 vacharit sndlhc-cg 4096 Sep 23 18:11 SND/RUN1/RUN1_W4_B1_M/p037/images/side1
drwxr-xr-x. 2 vacharit sndlhc-cg 4096 Sep 23 18:12 SND/RUN1/RUN1_W4_B1_M/p037/images/side1/view0
drw-r-----. 2 snd2cern sndlhc-cg 4096 Oct 31  2023 SND/RUN1/RUN1_W4_B3
dr--r-----. 2 snd2cern sndlhc-cg 4096 Oct 24  2023 SND/RUN1/RUN1_W4_B3/P001
dr--r-----. 2 snd2cern sndlhc-cg 4096 Oct 24  2023 SND/RUN1/RUN1_W4_B3/P002
dr--r-----. 2 snd2cern sndlhc-cg 4096 Oct 24  2023 SND/RUN1/RUN1_W4_B3/P003
dr--r-----. 2 snd2cern sndlhc-cg 4096 Oct 24  2023 SND/RUN1/RUN1_W4_B3/P004
dr--r-----. 2 snd2cern sndlhc-cg 4096 Oct 24  2023 SND/RUN1/RUN1_W4_B3/P005
dr--r-----. 2 snd2cern sndlhc-cg 4096 Nov  6  2023 SND/RUN1/RUN1_W4_B3/P006
dr--r-----. 2 snd2cern sndlhc-cg 4096 Oct  2  2023 SND/RUN1/RUN1_W4_B3/P006firstScann
dr--r-----. 2 snd2cern sndlhc-cg 4096 Oct 24  2023 SND/RUN1/RUN1_W4_B3/P006secondScan
dr--r-----. 2 snd2cern sndlhc-cg 4096 Nov  5  2023 SND/RUN1/RUN1_W4_B3/P007
dr--r-----. 2 snd2cern sndlhc-cg 4096 Oct  6  2023 SND/RUN1/RUN1_W4_B3/P007firstScann
dr--r-----. 2 snd2cern sndlhc-cg 4096 Oct 24  2023 SND/RUN1/RUN1_W4_B3/P008
dr--r-----. 2 snd2cern sndlhc-cg 4096 Nov  7  2023 SND/RUN1/RUN1_W4_B3/P009
dr--r-----. 2 snd2cern sndlhc-cg 4096 Oct 30  2023 SND/RUN1/RUN1_W4_B3/P009firstScan
dr--r-----. 2 snd2cern sndlhc-cg 4096 Oct 24  2023 SND/RUN1/RUN1_W4_B3/P010
dr--r-----. 2 snd2cern sndlhc-cg 4096 Sep 24  2023 SND/RUN1/RUN1_W4_B3/P010firstScann
dr--r-----. 2 snd2cern sndlhc-cg 4096 Oct 24  2023 SND/RUN1/RUN1_W4_B3/P011
dr--r-----. 2 snd2cern sndlhc-cg 4096 Sep 25  2023 SND/RUN1/RUN1_W4_B3/P011firstScan
dr--r-----. 2 snd2cern sndlhc-cg 4096 Nov 14  2023 SND/RUN1/RUN1_W4_B3/P012
dr--r-----. 2 snd2cern sndlhc-cg 4096 Oct 30  2023 SND/RUN1/RUN1_W4_B3/P013
dr--r-----. 2 snd2cern sndlhc-cg 4096 Oct 29  2023 SND/RUN1/RUN1_W4_B3/P014
dr--r-----. 2 snd2cern sndlhc-cg 4096 Oct 21  2023 SND/RUN1/RUN1_W4_B3/P015
dr--r-----. 2 snd2cern sndlhc-cg 4096 Oct  6  2023 SND/RUN1/RUN1_W4_B3/P016
dr--r-----. 2 snd2cern sndlhc-cg 4096 Oct  6  2023 SND/RUN1/RUN1_W4_B3/P017
dr--r-----. 2 snd2cern sndlhc-cg 4096 Oct  4  2023 SND/RUN1/RUN1_W4_B3/P018
dr--r-----. 2 snd2cern sndlhc-cg 4096 Oct  4  2023 SND/RUN1/RUN1_W4_B3/P019
dr--r-----. 2 snd2cern sndlhc-cg 4096 Oct  4  2023 SND/RUN1/RUN1_W4_B3/P020
dr--r-----. 2 snd2cern sndlhc-cg 4096 Oct  4  2023 SND/RUN1/RUN1_W4_B3/P021
dr--r-----. 2 snd2cern sndlhc-cg 4096 Oct  6  2023 SND/RUN1/RUN1_W4_B3/P022
dr--r-----. 2 snd2cern sndlhc-cg 4096 Oct  6  2023 SND/RUN1/RUN1_W4_B3/P023
dr--r-----. 2 snd2cern sndlhc-cg 4096 Oct  6  2023 SND/RUN1/RUN1_W4_B3/P024
dr--r-----. 2 snd2cern sndlhc-cg 4096 Oct  6  2023 SND/RUN1/RUN1_W4_B3/P025
dr--r-----. 2 snd2cern sndlhc-cg 4096 Oct  5  2023 SND/RUN1/RUN1_W4_B3/P026
dr--r-----. 2 snd2cern sndlhc-cg 4096 Oct  5  2023 SND/RUN1/RUN1_W4_B3/P027
dr--r-----. 2 snd2cern sndlhc-cg 4096 Oct  5  2023 SND/RUN1/RUN1_W4_B3/P028
dr--r-----. 2 snd2cern sndlhc-cg 4096 Oct  5  2023 SND/RUN1/RUN1_W4_B3/P029
dr--r-----. 2 snd2cern sndlhc-cg 4096 Oct  5  2023 SND/RUN1/RUN1_W4_B3/P030
dr--r-----. 2 snd2cern sndlhc-cg 4096 Oct  5  2023 SND/RUN1/RUN1_W4_B3/P031
dr--r-----. 2 snd2cern sndlhc-cg 4096 Oct  5  2023 SND/RUN1/RUN1_W4_B3/P032
dr--r-----. 2 snd2cern sndlhc-cg 4096 Oct  5  2023 SND/RUN1/RUN1_W4_B3/P033
dr--r-----. 2 snd2cern sndlhc-cg 4096 Oct  5  2023 SND/RUN1/RUN1_W4_B3/P034
dr--r-----. 2 snd2cern sndlhc-cg 4096 Oct  5  2023 SND/RUN1/RUN1_W4_B3/P035
dr--r-----. 2 snd2cern sndlhc-cg 4096 Oct  5  2023 SND/RUN1/RUN1_W4_B3/P036
dr--r-----. 2 snd2cern sndlhc-cg 4096 Oct  5  2023 SND/RUN1/RUN1_W4_B3/P037
dr--r-----. 2 snd2cern sndlhc-cg 4096 Oct  5  2023 SND/RUN1/RUN1_W4_B3/P038
dr--r-----. 2 snd2cern sndlhc-cg 4096 Oct  5  2023 SND/RUN1/RUN1_W4_B3/P039
dr--r-----. 2 snd2cern sndlhc-cg 4096 Aug 21  2023 SND/RUN1/RUN1_W4_B3/P040
dr--r-----. 2 snd2cern sndlhc-cg 4096 Aug 21  2023 SND/RUN1/RUN1_W4_B3/P041
dr--r-----. 2 snd2cern sndlhc-cg 4096 Aug 21  2023 SND/RUN1/RUN1_W4_B3/P042
dr--r-----. 2 snd2cern sndlhc-cg 4096 Aug 21  2023 SND/RUN1/RUN1_W4_B3/P043
dr--r-----. 2 snd2cern sndlhc-cg 4096 Aug 21  2023 SND/RUN1/RUN1_W4_B3/P044
dr--r-----. 2 snd2cern sndlhc-cg 4096 Aug 21  2023 SND/RUN1/RUN1_W4_B3/P045
dr--r-----. 2 snd2cern sndlhc-cg 4096 Oct 24  2023 SND/RUN1/RUN1_W4_B3/P046
dr--r-----. 2 snd2cern sndlhc-cg 4096 Aug 21  2023 SND/RUN1/RUN1_W4_B3/P046firstScan
dr--r-----. 2 snd2cern sndlhc-cg 4096 Aug 21  2023 SND/RUN1/RUN1_W4_B3/P047
dr--r-----. 2 snd2cern sndlhc-cg 4096 Aug 21  2023 SND/RUN1/RUN1_W4_B3/P048
dr--r-----. 2 snd2cern sndlhc-cg 4096 Oct 14  2023 SND/RUN1/RUN1_W4_B3/P049
dr--r-----. 2 snd2cern sndlhc-cg 4096 Aug 21  2023 SND/RUN1/RUN1_W4_B3/P050
dr--r-----. 2 snd2cern sndlhc-cg 4096 Aug 21  2023 SND/RUN1/RUN1_W4_B3/P051
dr--r-----. 2 snd2cern sndlhc-cg 4096 Aug 21  2023 SND/RUN1/RUN1_W4_B3/P052
dr--r-----. 2 snd2cern sndlhc-cg 4096 Aug 21  2023 SND/RUN1/RUN1_W4_B3/P053
dr--r-----. 2 snd2cern sndlhc-cg 4096 Aug 21  2023 SND/RUN1/RUN1_W4_B3/P054
dr--r-----. 2 snd2cern sndlhc-cg 4096 Jul 26  2023 SND/RUN1/RUN1_W4_B3/P054_test
dr--r-----. 2 snd2cern sndlhc-cg 4096 Aug 21  2023 SND/RUN1/RUN1_W4_B3/P055
dr--r-----. 2 snd2cern sndlhc-cg 4096 Aug 21  2023 SND/RUN1/RUN1_W4_B3/P056
dr--r-----. 2 snd2cern sndlhc-cg 4096 Aug 21  2023 SND/RUN1/RUN1_W4_B3/P057
drw-r-----. 2 snd2cern sndlhc-cg 4096 Oct  6  2023 SND/RUN1/RUN1_W4_B4
dr--r-----. 2 snd2cern sndlhc-cg 4096 Oct 24  2023 SND/RUN1/RUN1_W4_B4/P001
dr--r-----. 2 snd2cern sndlhc-cg 4096 Oct 24  2023 SND/RUN1/RUN1_W4_B4/P002
dr--r-----. 2 snd2cern sndlhc-cg 4096 Oct 24  2023 SND/RUN1/RUN1_W4_B4/P003
dr--r-----. 2 snd2cern sndlhc-cg 4096 Oct 24  2023 SND/RUN1/RUN1_W4_B4/P004
dr--r-----. 2 snd2cern sndlhc-cg 4096 Oct 24  2023 SND/RUN1/RUN1_W4_B4/P005
dr--r-----. 2 snd2cern sndlhc-cg 4096 Oct 24  2023 SND/RUN1/RUN1_W4_B4/P006
dr--r-----. 2 snd2cern sndlhc-cg 4096 Oct 24  2023 SND/RUN1/RUN1_W4_B4/P007
dr--r-----. 2 snd2cern sndlhc-cg 4096 Oct 24  2023 SND/RUN1/RUN1_W4_B4/P008
dr--r-----. 2 snd2cern sndlhc-cg 4096 Oct 24  2023 SND/RUN1/RUN1_W4_B4/P009
dr--r-----. 2 snd2cern sndlhc-cg 4096 Mar 15  2023 SND/RUN1/RUN1_W4_B4/P010
dr--r-----. 2 snd2cern sndlhc-cg 4096 Mar 15  2023 SND/RUN1/RUN1_W4_B4/P011
dr--r-----. 2 snd2cern sndlhc-cg 4096 Mar 15  2023 SND/RUN1/RUN1_W4_B4/P012
dr--r-----. 2 snd2cern sndlhc-cg 4096 Mar 15  2023 SND/RUN1/RUN1_W4_B4/P013
dr--r-----. 2 snd2cern sndlhc-cg 4096 Mar 15  2023 SND/RUN1/RUN1_W4_B4/P014
dr--r-----. 2 snd2cern sndlhc-cg 4096 Mar 23  2023 SND/RUN1/RUN1_W4_B4/P015
dr--r-----. 2 snd2cern sndlhc-cg 4096 Mar 23  2023 SND/RUN1/RUN1_W4_B4/P016
dr--r-----. 2 snd2cern sndlhc-cg 4096 Mar 23  2023 SND/RUN1/RUN1_W4_B4/P017
dr--r-----. 2 snd2cern sndlhc-cg 4096 Mar 23  2023 SND/RUN1/RUN1_W4_B4/P018
dr--r-----. 2 snd2cern sndlhc-cg 4096 Mar 23  2023 SND/RUN1/RUN1_W4_B4/P019
dr--r-----. 2 snd2cern sndlhc-cg 4096 Mar 23  2023 SND/RUN1/RUN1_W4_B4/P020
dr--r-----. 2 snd2cern sndlhc-cg 4096 Apr 19  2023 SND/RUN1/RUN1_W4_B4/P021
dr--r-----. 2 snd2cern sndlhc-cg 4096 Apr 19  2023 SND/RUN1/RUN1_W4_B4/P022
dr--r-----. 2 snd2cern sndlhc-cg 4096 Apr 19  2023 SND/RUN1/RUN1_W4_B4/P023
dr--r-----. 2 snd2cern sndlhc-cg 4096 Apr 19  2023 SND/RUN1/RUN1_W4_B4/P024
dr--r-----. 2 snd2cern sndlhc-cg 4096 Apr 19  2023 SND/RUN1/RUN1_W4_B4/P025
dr--r-----. 2 snd2cern sndlhc-cg 4096 Apr 19  2023 SND/RUN1/RUN1_W4_B4/P026
dr--r-----. 2 snd2cern sndlhc-cg 4096 Apr 19  2023 SND/RUN1/RUN1_W4_B4/P027
dr--r-----. 2 snd2cern sndlhc-cg 4096 Apr 19  2023 SND/RUN1/RUN1_W4_B4/P028
dr--r-----. 2 snd2cern sndlhc-cg 4096 Apr 19  2023 SND/RUN1/RUN1_W4_B4/P029
dr--r-----. 2 snd2cern sndlhc-cg 4096 Apr 19  2023 SND/RUN1/RUN1_W4_B4/P030
dr--r-----. 2 snd2cern sndlhc-cg 4096 Apr 25  2023 SND/RUN1/RUN1_W4_B4/P031
dr--r-----. 2 snd2cern sndlhc-cg 4096 Oct 24  2023 SND/RUN1/RUN1_W4_B4/P031_rescan
dr--r-----. 2 snd2cern sndlhc-cg 4096 Apr 25  2023 SND/RUN1/RUN1_W4_B4/P032
dr--r-----. 2 snd2cern sndlhc-cg 4096 Apr 25  2023 SND/RUN1/RUN1_W4_B4/P033
dr--r-----. 2 snd2cern sndlhc-cg 4096 Apr 25  2023 SND/RUN1/RUN1_W4_B4/P034
dr--r-----. 2 snd2cern sndlhc-cg 4096 Apr 25  2023 SND/RUN1/RUN1_W4_B4/P035
dr--r-----. 2 snd2cern sndlhc-cg 4096 Apr 25  2023 SND/RUN1/RUN1_W4_B4/P036
dr--r-----. 2 snd2cern sndlhc-cg 4096 Apr 25  2023 SND/RUN1/RUN1_W4_B4/P037
dr--r-----. 2 snd2cern sndlhc-cg 4096 Apr 25  2023 SND/RUN1/RUN1_W4_B4/P038
dr--r-----. 2 snd2cern sndlhc-cg 4096 Apr 25  2023 SND/RUN1/RUN1_W4_B4/P039
dr--r-----. 2 snd2cern sndlhc-cg 4096 May  4  2023 SND/RUN1/RUN1_W4_B4/P040
dr--r-----. 2 snd2cern sndlhc-cg 4096 May  4  2023 SND/RUN1/RUN1_W4_B4/P041
dr--r-----. 2 snd2cern sndlhc-cg 4096 May  4  2023 SND/RUN1/RUN1_W4_B4/P042
dr--r-----. 2 snd2cern sndlhc-cg 4096 Oct 24  2023 SND/RUN1/RUN1_W4_B4/P042_rescan
dr--r-----. 2 snd2cern sndlhc-cg 4096 May  4  2023 SND/RUN1/RUN1_W4_B4/P043
dr--r-----. 2 snd2cern sndlhc-cg 4096 May  4  2023 SND/RUN1/RUN1_W4_B4/P044
dr--r-----. 2 snd2cern sndlhc-cg 4096 May  4  2023 SND/RUN1/RUN1_W4_B4/P045
dr--r-----. 2 snd2cern sndlhc-cg 4096 May  4  2023 SND/RUN1/RUN1_W4_B4/P046
dr--r-----. 2 snd2cern sndlhc-cg 4096 May  4  2023 SND/RUN1/RUN1_W4_B4/P047
dr--r-----. 2 snd2cern sndlhc-cg 4096 May  4  2023 SND/RUN1/RUN1_W4_B4/P048
dr--r-----. 2 snd2cern sndlhc-cg 4096 May  4  2023 SND/RUN1/RUN1_W4_B4/P049
dr--r-----. 2 snd2cern sndlhc-cg 4096 May 16  2023 SND/RUN1/RUN1_W4_B4/P050
dr--r-----. 2 snd2cern sndlhc-cg 4096 May 16  2023 SND/RUN1/RUN1_W4_B4/P051
dr--r-----. 2 snd2cern sndlhc-cg 4096 May 17  2023 SND/RUN1/RUN1_W4_B4/P052
dr--r-----. 2 snd2cern sndlhc-cg 4096 May 17  2023 SND/RUN1/RUN1_W4_B4/P053
dr--r-----. 2 snd2cern sndlhc-cg 4096 May 17  2023 SND/RUN1/RUN1_W4_B4/P054
dr--r-----. 2 snd2cern sndlhc-cg 4096 May 17  2023 SND/RUN1/RUN1_W4_B4/P055
dr--r-----. 2 snd2cern sndlhc-cg 4096 Oct 24  2023 SND/RUN1/RUN1_W4_B4/P055_rescan
dr--r-----. 2 snd2cern sndlhc-cg 4096 May 17  2023 SND/RUN1/RUN1_W4_B4/P056
dr--r-----. 2 snd2cern sndlhc-cg 4096 May 17  2023 SND/RUN1/RUN1_W4_B4/P057
drw-r-----. 2 snd2cern sndlhc-cg 4096 Nov 18  2022 SND/RUN1_W2_B4
drw-r-----. 2 snd2cern sndlhc-cg 4096 Nov 18  2022 SND/RUN1_W2_B4/P07_testfastprocessing
drw-r-----. 2 snd2cern sndlhc-cg 4096 Oct 18 11:28 SND/RUN2
drw-r-----. 2 snd2cern sndlhc-cg 4096 Nov 25 09:31 SND/RUN2/RUN2_W1_B1
dr--r-----. 2 snd2cern sndlhc-cg 4096 Nov 20 15:20 SND/RUN2/RUN2_W1_B1/P001
dr--r-----. 2 snd2cern sndlhc-cg 4096 Nov 20 15:20 SND/RUN2/RUN2_W1_B1/P002
dr--r-----. 2 snd2cern sndlhc-cg 4096 Dec 11 11:59 SND/RUN2/RUN2_W1_B1/P002_rescan
dr--r-----. 2 snd2cern sndlhc-cg 4096 Nov 20 15:20 SND/RUN2/RUN2_W1_B1/P003
dr--r-----. 2 snd2cern sndlhc-cg 4096 Nov 20 15:20 SND/RUN2/RUN2_W1_B1/P004
dr--r-----. 2 snd2cern sndlhc-cg 4096 Nov 20 15:20 SND/RUN2/RUN2_W1_B1/P005
dr--r-----. 2 snd2cern sndlhc-cg 4096 Oct 31 16:33 SND/RUN2/RUN2_W1_B1/P006
dr--r-----. 2 snd2cern sndlhc-cg 4096 Oct 31 16:33 SND/RUN2/RUN2_W1_B1/P007
dr--r-----. 2 snd2cern sndlhc-cg 4096 Oct 31 16:33 SND/RUN2/RUN2_W1_B1/P008
dr--r-----. 2 snd2cern sndlhc-cg 4096 Oct 31 16:33 SND/RUN2/RUN2_W1_B1/P009
dr--r-----. 2 snd2cern sndlhc-cg 4096 Oct 31 16:33 SND/RUN2/RUN2_W1_B1/P010
dr--r-----. 2 snd2cern sndlhc-cg 4096 Oct 31 16:33 SND/RUN2/RUN2_W1_B1/P011
dr--r-----. 2 snd2cern sndlhc-cg 4096 Oct 31 16:33 SND/RUN2/RUN2_W1_B1/P012
dr--r-----. 2 snd2cern sndlhc-cg 4096 Oct 31 16:33 SND/RUN2/RUN2_W1_B1/P013
dr--r-----. 2 snd2cern sndlhc-cg 4096 Oct 31 16:33 SND/RUN2/RUN2_W1_B1/P014
dr--r-----. 2 snd2cern sndlhc-cg 4096 Oct 31 16:33 SND/RUN2/RUN2_W1_B1/P015
dr--r-----. 2 snd2cern sndlhc-cg 4096 Oct 31 16:33 SND/RUN2/RUN2_W1_B1/P016
dr--r-----. 2 snd2cern sndlhc-cg 4096 Oct 31 16:33 SND/RUN2/RUN2_W1_B1/P017
dr--r-----. 2 snd2cern sndlhc-cg 4096 Oct 25 17:44 SND/RUN2/RUN2_W1_B1/P018
dr--r-----. 2 snd2cern sndlhc-cg 4096 Oct 25 17:44 SND/RUN2/RUN2_W1_B1/P019
dr--r-----. 2 snd2cern sndlhc-cg 4096 Nov 20 15:20 SND/RUN2/RUN2_W1_B1/P019_rescan
dr--r-----. 2 snd2cern sndlhc-cg 4096 Oct 25 17:44 SND/RUN2/RUN2_W1_B1/P020
dr--r-----. 2 snd2cern sndlhc-cg 4096 Oct 25 17:45 SND/RUN2/RUN2_W1_B1/P021
dr--r-----. 2 snd2cern sndlhc-cg 4096 Dec 11 10:14 SND/RUN2/RUN2_W1_B1/P022
dr--r-----. 2 snd2cern sndlhc-cg 4096 Oct 18 09:53 SND/RUN2/RUN2_W1_B1/P023
dr--r-----. 2 snd2cern sndlhc-cg 4096 Oct 18 09:53 SND/RUN2/RUN2_W1_B1/P024
dr--r-----. 2 snd2cern sndlhc-cg 4096 Oct 18 09:53 SND/RUN2/RUN2_W1_B1/P025
dr--r-----. 2 snd2cern sndlhc-cg 4096 Oct 18 09:53 SND/RUN2/RUN2_W1_B1/P026
dr--r-----. 2 snd2cern sndlhc-cg 4096 Oct 18 09:53 SND/RUN2/RUN2_W1_B1/P027
dr--r-----. 2 snd2cern sndlhc-cg 4096 Nov 20 15:20 SND/RUN2/RUN2_W1_B1/P027_rescan
dr--r-----. 2 snd2cern sndlhc-cg 4096 Oct 18 09:53 SND/RUN2/RUN2_W1_B1/P028
dr--r-----. 2 snd2cern sndlhc-cg 4096 Oct 18 09:53 SND/RUN2/RUN2_W1_B1/P029
dr--r-----. 2 snd2cern sndlhc-cg 4096 Oct 18 09:53 SND/RUN2/RUN2_W1_B1/P030
dr--r-----. 2 snd2cern sndlhc-cg 4096 Oct 18 09:53 SND/RUN2/RUN2_W1_B1/P031
dr--r-----. 2 snd2cern sndlhc-cg 4096 Oct 18 09:53 SND/RUN2/RUN2_W1_B1/P032
dr--r-----. 2 snd2cern sndlhc-cg 4096 Oct 18 09:53 SND/RUN2/RUN2_W1_B1/P033
dr--r-----. 2 snd2cern sndlhc-cg 4096 Oct 18 09:53 SND/RUN2/RUN2_W1_B1/P034
dr--r-----. 2 snd2cern sndlhc-cg 4096 Oct 25 17:45 SND/RUN2/RUN2_W1_B1/P035
dr--r-----. 2 snd2cern sndlhc-cg 4096 Dec 11 10:14 SND/RUN2/RUN2_W1_B1/P036
dr--r-----. 2 snd2cern sndlhc-cg 4096 Oct 31 16:33 SND/RUN2/RUN2_W1_B1/P037
dr--r-----. 2 snd2cern sndlhc-cg 4096 Nov 20 15:20 SND/RUN2/RUN2_W1_B1/P037_rescan
dr--r-----. 2 snd2cern sndlhc-cg 4096 Oct 31 16:33 SND/RUN2/RUN2_W1_B1/P038
dr--r-----. 2 snd2cern sndlhc-cg 4096 Oct 25 17:45 SND/RUN2/RUN2_W1_B1/P039
dr--r-----. 2 snd2cern sndlhc-cg 4096 Nov 20 15:21 SND/RUN2/RUN2_W1_B1/P039_rescan
dr--r-----. 2 snd2cern sndlhc-cg 4096 Oct 25 17:45 SND/RUN2/RUN2_W1_B1/P040
dr--r-----. 2 snd2cern sndlhc-cg 4096 Oct 25 17:45 SND/RUN2/RUN2_W1_B1/P041
dr--r-----. 2 snd2cern sndlhc-cg 4096 Oct 25 17:45 SND/RUN2/RUN2_W1_B1/P042
dr--r-----. 2 snd2cern sndlhc-cg 4096 Oct 31 16:34 SND/RUN2/RUN2_W1_B1/P043
dr--r-----. 2 snd2cern sndlhc-cg 4096 Oct 10 09:17 SND/RUN2/RUN2_W1_B1/P044
dr--r-----. 2 snd2cern sndlhc-cg 4096 Nov 20 15:21 SND/RUN2/RUN2_W1_B1/P044_rescan
dr--r-----. 2 snd2cern sndlhc-cg 4096 Oct 10 09:17 SND/RUN2/RUN2_W1_B1/P045
dr--r-----. 2 snd2cern sndlhc-cg 4096 Oct 10 09:17 SND/RUN2/RUN2_W1_B1/P046
dr--r-----. 2 snd2cern sndlhc-cg 4096 Nov 20 15:21 SND/RUN2/RUN2_W1_B1/P046_rescan
dr--r-----. 2 snd2cern sndlhc-cg 4096 Oct 10 09:17 SND/RUN2/RUN2_W1_B1/P047
dr--r-----. 2 snd2cern sndlhc-cg 4096 Nov 20 15:21 SND/RUN2/RUN2_W1_B1/P047_rescan
dr--r-----. 2 snd2cern sndlhc-cg 4096 Oct 10 09:17 SND/RUN2/RUN2_W1_B1/P048
dr--r-----. 2 snd2cern sndlhc-cg 4096 Nov 20 15:21 SND/RUN2/RUN2_W1_B1/P048_rescan
dr--r-----. 2 snd2cern sndlhc-cg 4096 Oct 10 09:17 SND/RUN2/RUN2_W1_B1/P049
dr--r-----. 2 snd2cern sndlhc-cg 4096 Nov 20 15:21 SND/RUN2/RUN2_W1_B1/P049_rescan
dr--r-----. 2 snd2cern sndlhc-cg 4096 Oct 10 09:17 SND/RUN2/RUN2_W1_B1/P050
dr--r-----. 2 snd2cern sndlhc-cg 4096 Oct 10 09:17 SND/RUN2/RUN2_W1_B1/P051
dr--r-----. 2 snd2cern sndlhc-cg 4096 Oct 10 09:17 SND/RUN2/RUN2_W1_B1/P052
dr--r-----. 2 snd2cern sndlhc-cg 4096 Oct 10 09:17 SND/RUN2/RUN2_W1_B1/P053
dr--r-----. 2 snd2cern sndlhc-cg 4096 Oct 10 09:17 SND/RUN2/RUN2_W1_B1/P054
dr--r-----. 2 snd2cern sndlhc-cg 4096 Nov 20 15:21 SND/RUN2/RUN2_W1_B1/P054_rescan
dr--r-----. 2 snd2cern sndlhc-cg 4096 Oct 10 09:17 SND/RUN2/RUN2_W1_B1/P055
dr--r-----. 2 snd2cern sndlhc-cg 4096 Nov 20 15:21 SND/RUN2/RUN2_W1_B1/P055_rescan
dr--r-----. 2 snd2cern sndlhc-cg 4096 Oct 10 09:17 SND/RUN2/RUN2_W1_B1/P056
dr--r-----. 2 snd2cern sndlhc-cg 4096 Nov 20 15:20 SND/RUN2/RUN2_W1_B1/P056_rescan
dr--r-----. 2 snd2cern sndlhc-cg 4096 Oct 10 09:17 SND/RUN2/RUN2_W1_B1/P057
dr--r-----. 2 snd2cern sndlhc-cg 4096 Nov 20 15:20 SND/RUN2/RUN2_W1_B1/P057_rescan
drw-r-----. 2 snd2cern sndlhc-cg 4096 Jun  5  2024 SND/RUN2/RUN2_W2_B3
dr--r-----. 2 snd2cern sndlhc-cg 4096 Jun  7  2024 SND/RUN2/RUN2_W2_B3/P001
dr--r-----. 2 snd2cern sndlhc-cg 4096 Jun  7  2024 SND/RUN2/RUN2_W2_B3/P002
dr--r-----. 2 snd2cern sndlhc-cg 4096 Jun  7  2024 SND/RUN2/RUN2_W2_B3/P003
dr--r-----. 2 snd2cern sndlhc-cg 4096 Jun  7  2024 SND/RUN2/RUN2_W2_B3/P004
dr--r-----. 2 snd2cern sndlhc-cg 4096 Jun  7  2024 SND/RUN2/RUN2_W2_B3/P005
dr--r-----. 2 snd2cern sndlhc-cg 4096 Jun  7  2024 SND/RUN2/RUN2_W2_B3/P006
dr--r-----. 2 snd2cern sndlhc-cg 4096 Jun  3  2024 SND/RUN2/RUN2_W2_B3/P007
dr--r-----. 2 snd2cern sndlhc-cg 4096 Jun  3  2024 SND/RUN2/RUN2_W2_B3/P008
dr--r-----. 2 snd2cern sndlhc-cg 4096 Jun  3  2024 SND/RUN2/RUN2_W2_B3/P009
dr--r-----. 2 snd2cern sndlhc-cg 4096 May 30  2024 SND/RUN2/RUN2_W2_B3/P010
dr--r-----. 2 snd2cern sndlhc-cg 4096 May 30  2024 SND/RUN2/RUN2_W2_B3/P011
dr--r-----. 2 snd2cern sndlhc-cg 4096 Jun  7  2024 SND/RUN2/RUN2_W2_B3/P012
dr--r-----. 2 snd2cern sndlhc-cg 4096 Jun  3  2024 SND/RUN2/RUN2_W2_B3/P013
dr--r-----. 2 snd2cern sndlhc-cg 4096 May 24  2024 SND/RUN2/RUN2_W2_B3/P014
dr--r-----. 2 snd2cern sndlhc-cg 4096 May 24  2024 SND/RUN2/RUN2_W2_B3/P015
dr--r-----. 2 snd2cern sndlhc-cg 4096 May 24  2024 SND/RUN2/RUN2_W2_B3/P016
dr--r-----. 2 snd2cern sndlhc-cg 4096 May 24  2024 SND/RUN2/RUN2_W2_B3/P017
dr--r-----. 2 snd2cern sndlhc-cg 4096 May 24  2024 SND/RUN2/RUN2_W2_B3/P018
dr--r-----. 2 snd2cern sndlhc-cg 4096 May 24  2024 SND/RUN2/RUN2_W2_B3/P019
dr--r-----. 2 snd2cern sndlhc-cg 4096 May 24  2024 SND/RUN2/RUN2_W2_B3/P020
dr--r-----. 2 snd2cern sndlhc-cg 4096 May 24  2024 SND/RUN2/RUN2_W2_B3/P021
dr--r-----. 2 snd2cern sndlhc-cg 4096 May 24  2024 SND/RUN2/RUN2_W2_B3/P022
dr--r-----. 2 snd2cern sndlhc-cg 4096 May 24  2024 SND/RUN2/RUN2_W2_B3/P023
dr--r-----. 2 snd2cern sndlhc-cg 4096 May 17  2024 SND/RUN2/RUN2_W2_B3/P024
dr--r-----. 2 snd2cern sndlhc-cg 4096 May 17  2024 SND/RUN2/RUN2_W2_B3/P025
dr--r-----. 2 snd2cern sndlhc-cg 4096 May 17  2024 SND/RUN2/RUN2_W2_B3/P026
dr--r-----. 2 snd2cern sndlhc-cg 4096 May 17  2024 SND/RUN2/RUN2_W2_B3/P027
dr--r-----. 2 snd2cern sndlhc-cg 4096 May 17  2024 SND/RUN2/RUN2_W2_B3/P028
dr--r-----. 2 snd2cern sndlhc-cg 4096 May 17  2024 SND/RUN2/RUN2_W2_B3/P029
dr--r-----. 2 snd2cern sndlhc-cg 4096 May 17  2024 SND/RUN2/RUN2_W2_B3/P030
dr--r-----. 2 snd2cern sndlhc-cg 4096 Aug  6 09:28 SND/RUN2/RUN2_W2_B3/P030_rescan
dr--r-----. 2 snd2cern sndlhc-cg 4096 May 10  2024 SND/RUN2/RUN2_W2_B3/P031
dr--r-----. 2 snd2cern sndlhc-cg 4096 May 10  2024 SND/RUN2/RUN2_W2_B3/P032
dr--r-----. 2 snd2cern sndlhc-cg 4096 May 10  2024 SND/RUN2/RUN2_W2_B3/P033
dr--r-----. 2 snd2cern sndlhc-cg 4096 May 10  2024 SND/RUN2/RUN2_W2_B3/P034
dr--r-----. 2 snd2cern sndlhc-cg 4096 May 10  2024 SND/RUN2/RUN2_W2_B3/P035
dr--r-----. 2 snd2cern sndlhc-cg 4096 May 10  2024 SND/RUN2/RUN2_W2_B3/P036
dr--r-----. 2 snd2cern sndlhc-cg 4096 May 10  2024 SND/RUN2/RUN2_W2_B3/P037
dr--r-----. 2 snd2cern sndlhc-cg 4096 May 10  2024 SND/RUN2/RUN2_W2_B3/P038
dr--r-----. 2 snd2cern sndlhc-cg 4096 May 10  2024 SND/RUN2/RUN2_W2_B3/P039
dr--r-----. 2 snd2cern sndlhc-cg 4096 May 10  2024 SND/RUN2/RUN2_W2_B3/P040
dr--r-----. 2 snd2cern sndlhc-cg 4096 May 10  2024 SND/RUN2/RUN2_W2_B3/P041
dr--r-----. 2 snd2cern sndlhc-cg 4096 May 10  2024 SND/RUN2/RUN2_W2_B3/P042
dr--r-----. 2 snd2cern sndlhc-cg 4096 May  3  2024 SND/RUN2/RUN2_W2_B3/P042/error_logs
dr--r-----. 2 snd2cern sndlhc-cg 4096 May 10  2024 SND/RUN2/RUN2_W2_B3/P043
dr--r-----. 2 snd2cern sndlhc-cg 4096 May 10  2024 SND/RUN2/RUN2_W2_B3/P044
dr--r-----. 2 snd2cern sndlhc-cg 4096 May 10  2024 SND/RUN2/RUN2_W2_B3/P045
dr--r-----. 2 snd2cern sndlhc-cg 4096 May 10  2024 SND/RUN2/RUN2_W2_B3/P046
dr--r-----. 2 snd2cern sndlhc-cg 4096 May 10  2024 SND/RUN2/RUN2_W2_B3/P047
dr--r-----. 2 snd2cern sndlhc-cg 4096 May 10  2024 SND/RUN2/RUN2_W2_B3/P048
dr--r-----. 2 snd2cern sndlhc-cg 4096 Apr 30  2024 SND/RUN2/RUN2_W2_B3/P049
dr--r-----. 2 snd2cern sndlhc-cg 4096 Apr 30  2024 SND/RUN2/RUN2_W2_B3/P050
dr--r-----. 2 snd2cern sndlhc-cg 4096 Apr 30  2024 SND/RUN2/RUN2_W2_B3/P051
dr--r-----. 2 snd2cern sndlhc-cg 4096 Apr 30  2024 SND/RUN2/RUN2_W2_B3/P052
dr--r-----. 2 snd2cern sndlhc-cg 4096 May 14  2024 SND/RUN2/RUN2_W2_B3/P052_rescan
dr--r-----. 2 snd2cern sndlhc-cg 4096 Apr 30  2024 SND/RUN2/RUN2_W2_B3/P053
dr--r-----. 2 snd2cern sndlhc-cg 4096 Apr 30  2024 SND/RUN2/RUN2_W2_B3/P054
dr--r-----. 2 snd2cern sndlhc-cg 4096 Apr 30  2024 SND/RUN2/RUN2_W2_B3/P055
dr--r-----. 2 snd2cern sndlhc-cg 4096 Apr 30  2024 SND/RUN2/RUN2_W2_B3/P056
dr--r-----. 2 snd2cern sndlhc-cg 4096 Apr 30  2024 SND/RUN2/RUN2_W2_B3/P057
drw-r-----. 2 snd2cern sndlhc-cg 4096 Feb 14  2023 SND/RUN2/RUN2_W3_B1
dr--r-----. 2 snd2cern sndlhc-cg 4096 Mar 15  2023 SND/RUN2/RUN2_W3_B1/P001
drw-r-----. 2 snd2cern sndlhc-cg 4096 Feb 16  2023 SND/RUN2/RUN2_W3_B2
dr--r-----. 2 snd2cern sndlhc-cg 4096 Mar 15  2023 SND/RUN2/RUN2_W3_B2/P001
drw-r-----. 2 snd2cern sndlhc-cg 4096 Feb 20  2023 SND/RUN2/RUN2_W3_B3
dr--r-----. 2 snd2cern sndlhc-cg 4096 Mar 15  2023 SND/RUN2/RUN2_W3_B3/P001
drw-r-----. 2 snd2cern sndlhc-cg 4096 Feb  8  2023 SND/RUN2/RUN2_W3_B4
dr--r-----. 2 snd2cern sndlhc-cg 4096 Mar 15  2023 SND/RUN2/RUN2_W3_B4/P001
drw-r-----. 2 snd2cern sndlhc-cg 4096 Nov 24 21:33 SND/RUN2/RUN2_W4_B3
dr--r-----. 2 snd2cern sndlhc-cg 4096 Aug 13 13:53 SND/RUN2/RUN2_W4_B3/P001
dr--r-----. 2 snd2cern sndlhc-cg 4096 Aug 13 13:53 SND/RUN2/RUN2_W4_B3/P002
dr--r-----. 2 snd2cern sndlhc-cg 4096 Dec  9 09:42 SND/RUN2/RUN2_W4_B3/P002_rescan
dr--r-----. 2 snd2cern sndlhc-cg 4096 Aug 23 14:24 SND/RUN2/RUN2_W4_B3/P002_rotated180
dr--r-----. 2 snd2cern sndlhc-cg 4096 Aug 13 13:53 SND/RUN2/RUN2_W4_B3/P003
dr--r-----. 2 snd2cern sndlhc-cg 4096 Aug 13 13:52 SND/RUN2/RUN2_W4_B3/P004
dr--r-----. 2 snd2cern sndlhc-cg 4096 Aug 13 13:52 SND/RUN2/RUN2_W4_B3/P005
dr--r-----. 2 snd2cern sndlhc-cg 4096 Aug 13 13:52 SND/RUN2/RUN2_W4_B3/P006
dr--r-----. 2 snd2cern sndlhc-cg 4096 Aug 13 13:52 SND/RUN2/RUN2_W4_B3/P007
dr--r-----. 2 snd2cern sndlhc-cg 4096 Aug 13 13:52 SND/RUN2/RUN2_W4_B3/P008
dr--r-----. 2 snd2cern sndlhc-cg 4096 Aug 13 13:52 SND/RUN2/RUN2_W4_B3/P009
dr--r-----. 2 snd2cern sndlhc-cg 4096 Aug 13 13:52 SND/RUN2/RUN2_W4_B3/P010
dr--r-----. 2 snd2cern sndlhc-cg 4096 Aug 13 13:52 SND/RUN2/RUN2_W4_B3/P011
dr--r-----. 2 snd2cern sndlhc-cg 4096 Aug 13 13:52 SND/RUN2/RUN2_W4_B3/P012
dr--r-----. 2 snd2cern sndlhc-cg 4096 Aug 13 13:52 SND/RUN2/RUN2_W4_B3/P013
dr--r-----. 2 snd2cern sndlhc-cg 4096 Aug 13 13:52 SND/RUN2/RUN2_W4_B3/P014
dr--r-----. 2 snd2cern sndlhc-cg 4096 Aug 13 13:52 SND/RUN2/RUN2_W4_B3/P015
dr--r-----. 2 snd2cern sndlhc-cg 4096 Aug 23 14:24 SND/RUN2/RUN2_W4_B3/P016
dr--r-----. 2 snd2cern sndlhc-cg 4096 Aug 23 14:24 SND/RUN2/RUN2_W4_B3/P017
dr--r-----. 2 snd2cern sndlhc-cg 4096 Aug 23 14:25 SND/RUN2/RUN2_W4_B3/P018
dr--r-----. 2 snd2cern sndlhc-cg 4096 Aug 23 15:37 SND/RUN2/RUN2_W4_B3/P019
dr--r-----. 2 snd2cern sndlhc-cg 4096 Dec  9 09:46 SND/RUN2/RUN2_W4_B3/P019_rescan
dr--r-----. 2 snd2cern sndlhc-cg 4096 Aug 23 14:25 SND/RUN2/RUN2_W4_B3/P020
dr--r-----. 2 snd2cern sndlhc-cg 4096 Dec  9 09:48 SND/RUN2/RUN2_W4_B3/P020_rescan
dr--r-----. 2 snd2cern sndlhc-cg 4096 Aug 24 11:25 SND/RUN2/RUN2_W4_B3/P021
dr--r-----. 2 snd2cern sndlhc-cg 4096 Aug 23 14:25 SND/RUN2/RUN2_W4_B3/P022
dr--r-----. 2 snd2cern sndlhc-cg 4096 Aug 24 12:03 SND/RUN2/RUN2_W4_B3/P023
dr--r-----. 2 snd2cern sndlhc-cg 4096 Dec  9 09:52 SND/RUN2/RUN2_W4_B3/P023_rescan
dr--r-----. 2 snd2cern sndlhc-cg 4096 Aug 23 14:25 SND/RUN2/RUN2_W4_B3/P024
dr--r-----. 2 snd2cern sndlhc-cg 4096 Dec  9 09:56 SND/RUN2/RUN2_W4_B3/P024_rescan
dr--r-----. 2 snd2cern sndlhc-cg 4096 Aug 23 14:25 SND/RUN2/RUN2_W4_B3/P025
dr--r-----. 2 snd2cern sndlhc-cg 4096 Aug 23 14:25 SND/RUN2/RUN2_W4_B3/P026
dr--r-----. 2 snd2cern sndlhc-cg 4096 Aug 23 14:25 SND/RUN2/RUN2_W4_B3/P027
dr--r-----. 2 snd2cern sndlhc-cg 4096 Sep 12 14:44 SND/RUN2/RUN2_W4_B3/P028
dr--r-----. 2 snd2cern sndlhc-cg 4096 Sep 12 14:44 SND/RUN2/RUN2_W4_B3/P029
dr--r-----. 2 snd2cern sndlhc-cg 4096 Dec  9 10:01 SND/RUN2/RUN2_W4_B3/P029_rescan
dr--r-----. 2 snd2cern sndlhc-cg 4096 Sep 12 14:44 SND/RUN2/RUN2_W4_B3/P030
dr--r-----. 2 snd2cern sndlhc-cg 4096 Sep 12 14:44 SND/RUN2/RUN2_W4_B3/P031
dr--r-----. 2 snd2cern sndlhc-cg 4096 Sep 12 14:44 SND/RUN2/RUN2_W4_B3/P032
dr--r-----. 2 snd2cern sndlhc-cg 4096 Sep 12 14:44 SND/RUN2/RUN2_W4_B3/P033
dr--r-----. 2 snd2cern sndlhc-cg 4096 Sep 12 14:44 SND/RUN2/RUN2_W4_B3/P034
dr--r-----. 2 snd2cern sndlhc-cg 4096 Dec  9 10:04 SND/RUN2/RUN2_W4_B3/P034_rescan
dr--r-----. 2 snd2cern sndlhc-cg 4096 Sep 12 14:45 SND/RUN2/RUN2_W4_B3/P035
dr--r-----. 2 snd2cern sndlhc-cg 4096 Sep 12 14:44 SND/RUN2/RUN2_W4_B3/P036
dr--r-----. 2 snd2cern sndlhc-cg 4096 Sep 12 14:44 SND/RUN2/RUN2_W4_B3/P037
dr--r-----. 2 snd2cern sndlhc-cg 4096 Sep 12 14:44 SND/RUN2/RUN2_W4_B3/P038
dr--r-----. 2 snd2cern sndlhc-cg 4096 Sep 12 14:44 SND/RUN2/RUN2_W4_B3/P039
dr--r-----. 2 snd2cern sndlhc-cg 4096 Sep 12 14:44 SND/RUN2/RUN2_W4_B3/P040
dr--r-----. 2 snd2cern sndlhc-cg 4096 Sep 12 14:44 SND/RUN2/RUN2_W4_B3/P041
dr--r-----. 2 snd2cern sndlhc-cg 4096 Sep 12 14:44 SND/RUN2/RUN2_W4_B3/P042
dr--r-----. 2 snd2cern sndlhc-cg 4096 Sep 12 14:44 SND/RUN2/RUN2_W4_B3/P043
dr--r-----. 2 snd2cern sndlhc-cg 4096 Sep 12 14:44 SND/RUN2/RUN2_W4_B3/P044
dr--r-----. 2 snd2cern sndlhc-cg 4096 Sep 20 10:25 SND/RUN2/RUN2_W4_B3/P045
dr--r-----. 2 snd2cern sndlhc-cg 4096 Oct  2 17:36 SND/RUN2/RUN2_W4_B3/P046
dr--r-----. 2 snd2cern sndlhc-cg 4096 Oct  2 17:36 SND/RUN2/RUN2_W4_B3/P047
dr--r-----. 2 snd2cern sndlhc-cg 4096 Dec  9 10:09 SND/RUN2/RUN2_W4_B3/P047_rescan
dr--r-----. 2 snd2cern sndlhc-cg 4096 Oct  2 17:36 SND/RUN2/RUN2_W4_B3/P048
dr--r-----. 2 snd2cern sndlhc-cg 4096 Oct  2 17:36 SND/RUN2/RUN2_W4_B3/P049
dr--r-----. 2 snd2cern sndlhc-cg 4096 Oct  2 17:36 SND/RUN2/RUN2_W4_B3/P050
dr--r-----. 2 snd2cern sndlhc-cg 4096 Oct 10 09:16 SND/RUN2/RUN2_W4_B3/P050_RESCAN
dr--r-----. 2 snd2cern sndlhc-cg 4096 Oct  7 12:23 SND/RUN2/RUN2_W4_B3/P050_rescan
dr--r-----. 2 snd2cern sndlhc-cg 4096 Oct  2 17:36 SND/RUN2/RUN2_W4_B3/P051
dr--r-----. 2 snd2cern sndlhc-cg 4096 Oct  2 17:36 SND/RUN2/RUN2_W4_B3/P052
dr--r-----. 2 snd2cern sndlhc-cg 4096 Oct  2 17:36 SND/RUN2/RUN2_W4_B3/P053
dr--r-----. 2 snd2cern sndlhc-cg 4096 Oct  2 17:36 SND/RUN2/RUN2_W4_B3/P054
dr--r-----. 2 snd2cern sndlhc-cg 4096 Oct  2 17:36 SND/RUN2/RUN2_W4_B3/P055
dr--r-----. 2 snd2cern sndlhc-cg 4096 Dec  9 10:10 SND/RUN2/RUN2_W4_B3/P055_rescan
dr--r-----. 2 snd2cern sndlhc-cg 4096 Oct  2 17:36 SND/RUN2/RUN2_W4_B3/P056
dr--r-----. 2 snd2cern sndlhc-cg 4096 Oct 10 09:16 SND/RUN2/RUN2_W4_B3/P057
dr--r-----. 2 snd2cern sndlhc-cg 4096 Nov 24 21:33 SND/RUN2/RUN2_W4_B3/P057_rescan
drw-r-----. 2 snd2cern sndlhc-cg 4096 Oct 17 15:48 SND/RUN2/RUN2_W5_B1
dr--r-----. 2 snd2cern sndlhc-cg 4096 Oct 18 11:33 SND/RUN2/RUN2_W5_B1/P047
drw-r-----. 2 snd2cern sndlhc-cg 4096 Jan  8 09:53 SND/RUN2/RUN2_W5_B2
dr--r-----. 2 snd2cern sndlhc-cg 4096 Jun 21  2024 SND/RUN2/RUN2_W5_B2/P001
dr--r-----. 2 snd2cern sndlhc-cg 4096 Jun 21  2024 SND/RUN2/RUN2_W5_B2/P002
dr--r-----. 2 snd2cern sndlhc-cg 4096 Dec 18 14:23 SND/RUN2/RUN2_W5_B2/P002_rescan
dr--r-----. 2 snd2cern sndlhc-cg 4096 Jun 21  2024 SND/RUN2/RUN2_W5_B2/P003
dr--r-----. 2 snd2cern sndlhc-cg 4096 Jun 21  2024 SND/RUN2/RUN2_W5_B2/P004
dr--r-----. 2 snd2cern sndlhc-cg 4096 Dec 11 10:10 SND/RUN2/RUN2_W5_B2/P004_rescan
dr--r-----. 2 snd2cern sndlhc-cg 4096 Jun 21  2024 SND/RUN2/RUN2_W5_B2/P005
dr--r-----. 2 snd2cern sndlhc-cg 4096 Dec 18 16:11 SND/RUN2/RUN2_W5_B2/P005_rescan
dr--r-----. 2 snd2cern sndlhc-cg 4096 Jun 21  2024 SND/RUN2/RUN2_W5_B2/P006
dr--r-----. 2 snd2cern sndlhc-cg 4096 Dec 11 10:10 SND/RUN2/RUN2_W5_B2/P006_rescan
dr--r-----. 2 snd2cern sndlhc-cg 4096 Jun 21  2024 SND/RUN2/RUN2_W5_B2/P007
dr--r-----. 2 snd2cern sndlhc-cg 4096 Jun 21  2024 SND/RUN2/RUN2_W5_B2/P008
dr--r-----. 2 snd2cern sndlhc-cg 4096 Dec 11 10:10 SND/RUN2/RUN2_W5_B2/P008_rescan
dr--r-----. 2 snd2cern sndlhc-cg 4096 Jun 27  2024 SND/RUN2/RUN2_W5_B2/P009
dr--r-----. 2 snd2cern sndlhc-cg 4096 Dec 11 10:10 SND/RUN2/RUN2_W5_B2/P009_rescan
dr--r-----. 2 snd2cern sndlhc-cg 4096 Dec 12 09:00 SND/RUN2/RUN2_W5_B2/P009_rescan2
dr--r-----. 2 snd2cern sndlhc-cg 4096 Jun 27  2024 SND/RUN2/RUN2_W5_B2/P010
dr--r-----. 2 snd2cern sndlhc-cg 4096 Dec 16 10:31 SND/RUN2/RUN2_W5_B2/P010_rescan
dr--r-----. 2 snd2cern sndlhc-cg 4096 Jun 27  2024 SND/RUN2/RUN2_W5_B2/P011
dr--r-----. 2 snd2cern sndlhc-cg 4096 Dec 16 10:31 SND/RUN2/RUN2_W5_B2/P011_rescan
dr--r-----. 2 snd2cern sndlhc-cg 4096 Jun 27  2024 SND/RUN2/RUN2_W5_B2/P012
dr--r-----. 2 snd2cern sndlhc-cg 4096 Dec 16 10:31 SND/RUN2/RUN2_W5_B2/P012_rescan
dr--r-----. 2 snd2cern sndlhc-cg 4096 Jun 27  2024 SND/RUN2/RUN2_W5_B2/P013
dr--r-----. 2 snd2cern sndlhc-cg 4096 Dec 16 10:31 SND/RUN2/RUN2_W5_B2/P013_rescan
dr--r-----. 2 snd2cern sndlhc-cg 4096 Jun 27  2024 SND/RUN2/RUN2_W5_B2/P014
dr--r-----. 2 snd2cern sndlhc-cg 4096 Dec 16 10:32 SND/RUN2/RUN2_W5_B2/P014_rescan
dr--r-----. 2 snd2cern sndlhc-cg 4096 Jun 27  2024 SND/RUN2/RUN2_W5_B2/P015
dr--r-----. 2 snd2cern sndlhc-cg 4096 Dec 20 10:22 SND/RUN2/RUN2_W5_B2/P015_rescan
dr--r-----. 2 snd2cern sndlhc-cg 4096 Jun 27  2024 SND/RUN2/RUN2_W5_B2/P016
dr--r-----. 2 snd2cern sndlhc-cg 4096 Dec 20 10:22 SND/RUN2/RUN2_W5_B2/P016_rescan
dr--r-----. 2 snd2cern sndlhc-cg 4096 Jun 27  2024 SND/RUN2/RUN2_W5_B2/P017
dr--r-----. 2 snd2cern sndlhc-cg 4096 Dec 20 10:22 SND/RUN2/RUN2_W5_B2/P017_rescan
dr--r-----. 2 snd2cern sndlhc-cg 4096 Jun 27  2024 SND/RUN2/RUN2_W5_B2/P018
dr--r-----. 2 snd2cern sndlhc-cg 4096 Dec 20 10:22 SND/RUN2/RUN2_W5_B2/P018_rescan
dr--r-----. 2 snd2cern sndlhc-cg 4096 Jun 27  2024 SND/RUN2/RUN2_W5_B2/P019
dr--r-----. 2 snd2cern sndlhc-cg 4096 Dec 20 10:22 SND/RUN2/RUN2_W5_B2/P019_rescan
dr--r-----. 2 snd2cern sndlhc-cg 4096 Jun 27  2024 SND/RUN2/RUN2_W5_B2/P020
dr--r-----. 2 snd2cern sndlhc-cg 4096 Jan  6 11:14 SND/RUN2/RUN2_W5_B2/P020_rescan
dr--r-----. 2 snd2cern sndlhc-cg 4096 Jun 27  2024 SND/RUN2/RUN2_W5_B2/P021
dr--r-----. 2 snd2cern sndlhc-cg 4096 Jan  8 20:07 SND/RUN2/RUN2_W5_B2/P021_rescan
dr--r-----. 2 snd2cern sndlhc-cg 4096 Jun 27  2024 SND/RUN2/RUN2_W5_B2/P022
dr--r-----. 2 snd2cern sndlhc-cg 4096 Jun 27  2024 SND/RUN2/RUN2_W5_B2/P022_rescan
dr--r-----. 2 snd2cern sndlhc-cg 4096 Jan  8 20:11 SND/RUN2/RUN2_W5_B2/P022_rescan2
dr--r-----. 2 snd2cern sndlhc-cg 4096 Jun 27  2024 SND/RUN2/RUN2_W5_B2/P023
dr--r-----. 2 snd2cern sndlhc-cg 4096 Jul 10  2024 SND/RUN2/RUN2_W5_B2/P024
dr--r-----. 2 snd2cern sndlhc-cg 4096 Jul 10  2024 SND/RUN2/RUN2_W5_B2/P025
dr--r-----. 2 snd2cern sndlhc-cg 4096 Jul 10  2024 SND/RUN2/RUN2_W5_B2/P026
dr--r-----. 2 snd2cern sndlhc-cg 4096 Jul 10  2024 SND/RUN2/RUN2_W5_B2/P027
dr--r-----. 2 snd2cern sndlhc-cg 4096 Jul 10  2024 SND/RUN2/RUN2_W5_B2/P028
dr--r-----. 2 snd2cern sndlhc-cg 4096 Jul 10  2024 SND/RUN2/RUN2_W5_B2/P029
dr--r-----. 2 snd2cern sndlhc-cg 4096 Jul 10  2024 SND/RUN2/RUN2_W5_B2/P030
dr--r-----. 2 snd2cern sndlhc-cg 4096 Jul  2  2024 SND/RUN2/RUN2_W5_B2/P030/mic1
dr--r-----. 2 snd2cern sndlhc-cg 4096 Jul  2  2024 SND/RUN2/RUN2_W5_B2/P030/procsrv1
dr--r-----. 2 snd2cern sndlhc-cg 4096 Jan  8 20:16 SND/RUN2/RUN2_W5_B2/P030_rescan
dr--r-----. 2 snd2cern sndlhc-cg 4096 Jan  8 20:16 SND/RUN2/RUN2_W5_B2/P030_rescan/mic1
dr--r-----. 2 snd2cern sndlhc-cg 4096 Jan  8 20:17 SND/RUN2/RUN2_W5_B2/P030_rescan/procsrv1
dr--r-----. 2 snd2cern sndlhc-cg 4096 Jul 23 09:07 SND/RUN2/RUN2_W5_B2/P031
dr--r-----. 2 snd2cern sndlhc-cg 4096 Jul 23 09:11 SND/RUN2/RUN2_W5_B2/P032
dr--r-----. 2 snd2cern sndlhc-cg 4096 Jul 23 09:11 SND/RUN2/RUN2_W5_B2/P033
dr--r-----. 2 snd2cern sndlhc-cg 4096 Jul 23 09:11 SND/RUN2/RUN2_W5_B2/P034
dr--r-----. 2 snd2cern sndlhc-cg 4096 Jul 23 09:11 SND/RUN2/RUN2_W5_B2/P035
dr--r-----. 2 snd2cern sndlhc-cg 4096 Aug  6 16:38 SND/RUN2/RUN2_W5_B2/P036
dr--r-----. 2 snd2cern sndlhc-cg 4096 Aug  6 16:39 SND/RUN2/RUN2_W5_B2/P037
dr--r-----. 2 snd2cern sndlhc-cg 4096 Aug  6 16:39 SND/RUN2/RUN2_W5_B2/P038
dr--r-----. 2 snd2cern sndlhc-cg 4096 Jul 23 09:11 SND/RUN2/RUN2_W5_B2/P039
dr--r-----. 2 snd2cern sndlhc-cg 4096 Jul 23 09:11 SND/RUN2/RUN2_W5_B2/P040
dr--r-----. 2 snd2cern sndlhc-cg 4096 Jul 23 09:11 SND/RUN2/RUN2_W5_B2/P041
dr--r-----. 2 snd2cern sndlhc-cg 4096 Jul 23 09:11 SND/RUN2/RUN2_W5_B2/P042
dr--r-----. 2 snd2cern sndlhc-cg 4096 Jul 23 09:11 SND/RUN2/RUN2_W5_B2/P043
dr--r-----. 2 snd2cern sndlhc-cg 4096 Aug  6 16:38 SND/RUN2/RUN2_W5_B2/P044
dr--r-----. 2 snd2cern sndlhc-cg 4096 Aug  6 16:38 SND/RUN2/RUN2_W5_B2/P045
dr--r-----. 2 snd2cern sndlhc-cg 4096 Aug  6 16:38 SND/RUN2/RUN2_W5_B2/P046
dr--r-----. 2 snd2cern sndlhc-cg 4096 Aug  6 16:38 SND/RUN2/RUN2_W5_B2/P047
dr--r-----. 2 snd2cern sndlhc-cg 4096 Aug  6 16:38 SND/RUN2/RUN2_W5_B2/P048
dr--r-----. 2 snd2cern sndlhc-cg 4096 Aug  6 16:38 SND/RUN2/RUN2_W5_B2/P049
dr--r-----. 2 snd2cern sndlhc-cg 4096 Aug  6 16:38 SND/RUN2/RUN2_W5_B2/P050
dr--r-----. 2 snd2cern sndlhc-cg 4096 Aug  6 16:38 SND/RUN2/RUN2_W5_B2/P051
dr--r-----. 2 snd2cern sndlhc-cg 4096 Aug  6 16:38 SND/RUN2/RUN2_W5_B2/P052
dr--r-----. 2 snd2cern sndlhc-cg 4096 Aug  6 16:38 SND/RUN2/RUN2_W5_B2/P053
dr--r-----. 2 snd2cern sndlhc-cg 4096 Aug  6 16:38 SND/RUN2/RUN2_W5_B2/P054
dr--r-----. 2 snd2cern sndlhc-cg 4096 Aug  6 16:38 SND/RUN2/RUN2_W5_B2/P055
dr--r-----. 2 snd2cern sndlhc-cg 4096 Aug  6 16:38 SND/RUN2/RUN2_W5_B2/P056
dr--r-----. 2 snd2cern sndlhc-cg 4096 Aug  6 16:38 SND/RUN2/RUN2_W5_B2/P057
drw-r-----. 2 snd2cern sndlhc-cg 4096 May  1  2024 SND/RUN2/error_logs
drw-r-----. 2 snd2cern sndlhc-cg 4096 Mar 13  2023 SND/RUN2_3per3_offline
drw-r-----. 2 snd2cern sndlhc-cg 4096 Mar 15  2023 SND/RUN2_3per3_offline/RUN2_W2_B4
dr--r-----. 2 snd2cern sndlhc-cg 4096 Mar 13  2023 SND/RUN2_3per3_offline/RUN2_W2_B4/P002
drw-r-----. 2 snd2cern sndlhc-cg 4096 Feb  1  2024 SND/RUN3
drw-r-----. 2 snd2cern sndlhc-cg 4096 Feb 19  2024 SND/RUN3/RUN3_W5_B1
dr--r-----. 2 snd2cern sndlhc-cg 4096 Feb  1  2024 SND/RUN3/RUN3_W5_B1/P041
dr--r-----. 2 snd2cern sndlhc-cg 4096 Feb  1  2024 SND/RUN3/RUN3_W5_B1/P042
dr--r-----. 2 snd2cern sndlhc-cg 4096 Feb  1  2024 SND/RUN3/RUN3_W5_B1/P043
dr--r-----. 2 snd2cern sndlhc-cg 4096 Feb  1  2024 SND/RUN3/RUN3_W5_B1/P044
drw-r-----. 2 snd2cern sndlhc-cg 4096 Apr 19  2024 SND/RUN3/RUN3_W5_B4
dr--r-----. 2 snd2cern sndlhc-cg 4096 Apr 10  2024 SND/RUN3/RUN3_W5_B4/P001
dr--r-----. 2 snd2cern sndlhc-cg 4096 Apr 10  2024 SND/RUN3/RUN3_W5_B4/P002
dr--r-----. 2 snd2cern sndlhc-cg 4096 Apr 10  2024 SND/RUN3/RUN3_W5_B4/P003
dr--r-----. 2 snd2cern sndlhc-cg 4096 Apr 10  2024 SND/RUN3/RUN3_W5_B4/P004
dr--r-----. 2 snd2cern sndlhc-cg 4096 Apr  2  2024 SND/RUN3/RUN3_W5_B4/P005
dr--r-----. 2 snd2cern sndlhc-cg 4096 Apr 19  2024 SND/RUN3/RUN3_W5_B4/P005_rescan
dr--r-----. 2 snd2cern sndlhc-cg 4096 Apr 10  2024 SND/RUN3/RUN3_W5_B4/P006
dr--r-----. 2 snd2cern sndlhc-cg 4096 Apr 10  2024 SND/RUN3/RUN3_W5_B4/P007
dr--r-----. 2 snd2cern sndlhc-cg 4096 Apr 10  2024 SND/RUN3/RUN3_W5_B4/P008
dr--r-----. 2 snd2cern sndlhc-cg 4096 Apr 10  2024 SND/RUN3/RUN3_W5_B4/P009
dr--r-----. 2 snd2cern sndlhc-cg 4096 Apr 10  2024 SND/RUN3/RUN3_W5_B4/P010
dr--r-----. 2 snd2cern sndlhc-cg 4096 Apr 10  2024 SND/RUN3/RUN3_W5_B4/P011
dr--r-----. 2 snd2cern sndlhc-cg 4096 Apr 10  2024 SND/RUN3/RUN3_W5_B4/P012
dr--r-----. 2 snd2cern sndlhc-cg 4096 Apr 19  2024 SND/RUN3/RUN3_W5_B4/P012_rescan
dr--r-----. 2 snd2cern sndlhc-cg 4096 Apr 10  2024 SND/RUN3/RUN3_W5_B4/P013
dr--r-----. 2 snd2cern sndlhc-cg 4096 Apr 10  2024 SND/RUN3/RUN3_W5_B4/P014
dr--r-----. 2 snd2cern sndlhc-cg 4096 Apr 10  2024 SND/RUN3/RUN3_W5_B4/P015
dr--r-----. 2 snd2cern sndlhc-cg 4096 Apr 10  2024 SND/RUN3/RUN3_W5_B4/P016
dr--r-----. 2 snd2cern sndlhc-cg 4096 Apr 10  2024 SND/RUN3/RUN3_W5_B4/P017
dr--r-----. 2 snd2cern sndlhc-cg 4096 Apr 10  2024 SND/RUN3/RUN3_W5_B4/P018
dr--r-----. 2 snd2cern sndlhc-cg 4096 Apr 10  2024 SND/RUN3/RUN3_W5_B4/P019
dr--r-----. 2 snd2cern sndlhc-cg 4096 Apr 19  2024 SND/RUN3/RUN3_W5_B4/P019_rescan
dr--r-----. 2 snd2cern sndlhc-cg 4096 Apr 10  2024 SND/RUN3/RUN3_W5_B4/P020
dr--r-----. 2 snd2cern sndlhc-cg 4096 Apr 19  2024 SND/RUN3/RUN3_W5_B4/P020_rescan
dr--r-----. 2 snd2cern sndlhc-cg 4096 Apr 10  2024 SND/RUN3/RUN3_W5_B4/P021
dr--r-----. 2 snd2cern sndlhc-cg 4096 Apr 19  2024 SND/RUN3/RUN3_W5_B4/P021_rescan
dr--r-----. 2 snd2cern sndlhc-cg 4096 Apr 10  2024 SND/RUN3/RUN3_W5_B4/P022
dr--r-----. 2 snd2cern sndlhc-cg 4096 Apr 10  2024 SND/RUN3/RUN3_W5_B4/P023
dr--r-----. 2 snd2cern sndlhc-cg 4096 Apr 10  2024 SND/RUN3/RUN3_W5_B4/P024
dr--r-----. 2 snd2cern sndlhc-cg 4096 Apr 19  2024 SND/RUN3/RUN3_W5_B4/P024_rescan
dr--r-----. 2 snd2cern sndlhc-cg 4096 Apr 10  2024 SND/RUN3/RUN3_W5_B4/P025
dr--r-----. 2 snd2cern sndlhc-cg 4096 Apr 19  2024 SND/RUN3/RUN3_W5_B4/P025_rescan
dr--r-----. 2 snd2cern sndlhc-cg 4096 Apr 10  2024 SND/RUN3/RUN3_W5_B4/P026
dr--r-----. 2 snd2cern sndlhc-cg 4096 Apr 10  2024 SND/RUN3/RUN3_W5_B4/P027
dr--r-----. 2 snd2cern sndlhc-cg 4096 Apr 10  2024 SND/RUN3/RUN3_W5_B4/P028
dr--r-----. 2 snd2cern sndlhc-cg 4096 Apr 10  2024 SND/RUN3/RUN3_W5_B4/P029
dr--r-----. 2 snd2cern sndlhc-cg 4096 Apr 10  2024 SND/RUN3/RUN3_W5_B4/P030
dr--r-----. 2 snd2cern sndlhc-cg 4096 Apr 10  2024 SND/RUN3/RUN3_W5_B4/P031
dr--r-----. 2 snd2cern sndlhc-cg 4096 Jan 27  2024 SND/RUN3/RUN3_W5_B4/P032
dr--r-----. 2 snd2cern sndlhc-cg 4096 Jan 27  2024 SND/RUN3/RUN3_W5_B4/P033
dr--r-----. 2 snd2cern sndlhc-cg 4096 Apr 10  2024 SND/RUN3/RUN3_W5_B4/P033_1
dr--r-----. 2 snd2cern sndlhc-cg 4096 Jan 27  2024 SND/RUN3/RUN3_W5_B4/P034
dr--r-----. 2 snd2cern sndlhc-cg 4096 Jan 27  2024 SND/RUN3/RUN3_W5_B4/P035
dr--r-----. 2 snd2cern sndlhc-cg 4096 Jan 27  2024 SND/RUN3/RUN3_W5_B4/P036
dr--r-----. 2 snd2cern sndlhc-cg 4096 Jan 27  2024 SND/RUN3/RUN3_W5_B4/P037
dr--r-----. 2 snd2cern sndlhc-cg 4096 Jan 27  2024 SND/RUN3/RUN3_W5_B4/P038
dr--r-----. 2 snd2cern sndlhc-cg 4096 Jan 27  2024 SND/RUN3/RUN3_W5_B4/P039
dr--r-----. 2 snd2cern sndlhc-cg 4096 Dec 14  2023 SND/RUN3/RUN3_W5_B4/P040
dr--r-----. 2 snd2cern sndlhc-cg 4096 Dec 14  2023 SND/RUN3/RUN3_W5_B4/P041
dr--r-----. 2 snd2cern sndlhc-cg 4096 Dec 14  2023 SND/RUN3/RUN3_W5_B4/P042
dr--r-----. 2 snd2cern sndlhc-cg 4096 Dec 14  2023 SND/RUN3/RUN3_W5_B4/P043
dr--r-----. 2 snd2cern sndlhc-cg 4096 Apr 10  2024 SND/RUN3/RUN3_W5_B4/P043_1
dr--r-----. 2 snd2cern sndlhc-cg 4096 Dec 14  2023 SND/RUN3/RUN3_W5_B4/P044
dr--r-----. 2 snd2cern sndlhc-cg 4096 Apr 10  2024 SND/RUN3/RUN3_W5_B4/P044_1
dr--r-----. 2 snd2cern sndlhc-cg 4096 Apr 10  2024 SND/RUN3/RUN3_W5_B4/P045
dr--r-----. 2 snd2cern sndlhc-cg 4096 Apr  2  2024 SND/RUN3/RUN3_W5_B4/P046
dr--r-----. 2 snd2cern sndlhc-cg 4096 Nov 29  2023 SND/RUN3/RUN3_W5_B4/P047
dr--r-----. 2 snd2cern sndlhc-cg 4096 Nov 29  2023 SND/RUN3/RUN3_W5_B4/P048
dr--r-----. 2 snd2cern sndlhc-cg 4096 Nov 29  2023 SND/RUN3/RUN3_W5_B4/P049
dr--r-----. 2 snd2cern sndlhc-cg 4096 Nov 29  2023 SND/RUN3/RUN3_W5_B4/P050
dr--r-----. 2 snd2cern sndlhc-cg 4096 Nov 14  2023 SND/RUN3/RUN3_W5_B4/P051
dr--r-----. 2 snd2cern sndlhc-cg 4096 Nov 14  2023 SND/RUN3/RUN3_W5_B4/P052
dr--r-----. 2 snd2cern sndlhc-cg 4096 Apr 10  2024 SND/RUN3/RUN3_W5_B4/P052_1
dr--r-----. 2 snd2cern sndlhc-cg 4096 Nov 14  2023 SND/RUN3/RUN3_W5_B4/P053
dr--r-----. 2 snd2cern sndlhc-cg 4096 Nov 14  2023 SND/RUN3/RUN3_W5_B4/P054
dr--r-----. 2 snd2cern sndlhc-cg 4096 Apr 10  2024 SND/RUN3/RUN3_W5_B4/P054_1
dr--r-----. 2 snd2cern sndlhc-cg 4096 Nov 14  2023 SND/RUN3/RUN3_W5_B4/P055
dr--r-----. 2 snd2cern sndlhc-cg 4096 Apr 10  2024 SND/RUN3/RUN3_W5_B4/P055_1
dr--r-----. 2 snd2cern sndlhc-cg 4096 Mar 21  2024 SND/RUN3/RUN3_W5_B4/P056
dr--r-----. 2 snd2cern sndlhc-cg 4096 Apr 10  2024 SND/RUN3/RUN3_W5_B4/P056_1
dr--r-----. 2 snd2cern sndlhc-cg 4096 Nov 14  2023 SND/RUN3/RUN3_W5_B4/P057
dr--r-----. 2 snd2cern sndlhc-cg 4096 Nov 14  2023 SND/RUN3/RUN3_W5_B4/P058
dr--r-----. 2 snd2cern sndlhc-cg 4096 Apr  2  2024 SND/RUN3/RUN3_W5_B4/P059
dr--r-----. 2 snd2cern sndlhc-cg 4096 Nov 14  2023 SND/RUN3/RUN3_W5_B4/P060
dr--r-----. 2 snd2cern sndlhc-cg 4096 Apr 10  2024 SND/RUN3/RUN3_W5_B4/P060_1
dr--r-----. 2 snd2cern sndlhc-cg 4096 Mar 26  2024 SND/RUN3/RUN3_W5_B4/P256
