drwxrwx---. 2 gpsndlhc sndlhc-cg 4096 Jul  8  2024 RUN3_W2_B2
drwxrwx---. 2 gpsndlhc sndlhc-cg 4096 May  6  2024 RUN3_W2_B2/P1
drwxrwx---. 2 gpsndlhc sndlhc-cg 4096 May 17  2024 RUN3_W2_B2/P10
drwxrwx---. 2 gpsndlhc sndlhc-cg 4096 May 20  2024 RUN3_W2_B2/P11
drwxrwx---. 2 gpsndlhc sndlhc-cg 4096 May 22  2024 RUN3_W2_B2/P12
drwxrwx---. 2 gpsndlhc sndlhc-cg 4096 May 23  2024 RUN3_W2_B2/P13
drwxrwx---. 2 gpsndlhc sndlhc-cg 4096 May 24  2024 RUN3_W2_B2/P14
drwxrwx---. 2 gpsndlhc sndlhc-cg 4096 May 27  2024 RUN3_W2_B2/P15
drwxrwx---. 2 gpsndlhc sndlhc-cg 4096 May 30  2024 RUN3_W2_B2/P16
drwxrwx---. 2 gpsndlhc sndlhc-cg 4096 May 31  2024 RUN3_W2_B2/P17
drwxrwx---. 2 gpsndlhc sndlhc-cg 4096 Jun  3  2024 RUN3_W2_B2/P18
drwxrwx---. 2 gpsndlhc sndlhc-cg 4096 Jun  4  2024 RUN3_W2_B2/P19
drwxrwx---. 2 gpsndlhc sndlhc-cg 4096 May  6  2024 RUN3_W2_B2/P2
drwxrwx---. 2 gpsndlhc sndlhc-cg 4096 Jun  5  2024 RUN3_W2_B2/P20
drwxrwx---. 2 gpsndlhc sndlhc-cg 4096 Jun  6  2024 RUN3_W2_B2/P21
drwxrwx---. 2 gpsndlhc sndlhc-cg 4096 Jun  7  2024 RUN3_W2_B2/P22
drwxrwx---. 2 gpsndlhc sndlhc-cg 4096 Jun 13  2024 RUN3_W2_B2/P24
drwxrwx---. 2 gpsndlhc sndlhc-cg 4096 Jun 14  2024 RUN3_W2_B2/P25
drwxrwx---. 2 gpsndlhc sndlhc-cg 4096 Jun 18  2024 RUN3_W2_B2/P26
drwxrwx---. 2 gpsndlhc sndlhc-cg 4096 Jun 19  2024 RUN3_W2_B2/P27
drwxrwx---. 2 gpsndlhc sndlhc-cg 4096 Jun 21  2024 RUN3_W2_B2/P28
drwxrwx---. 2 gpsndlhc sndlhc-cg 4096 Jul  8  2024 RUN3_W2_B2/P29
drwxrwx---. 2 gpsndlhc sndlhc-cg 4096 May  6  2024 RUN3_W2_B2/P3
drwxrwx---. 2 gpsndlhc sndlhc-cg 4096 Jul  8  2024 RUN3_W2_B2/P30
drwxrwx---. 2 gpsndlhc sndlhc-cg 4096 Jul  8  2024 RUN3_W2_B2/P31
drwxrwx---. 2 gpsndlhc sndlhc-cg 4096 Jul  8  2024 RUN3_W2_B2/P32
drwxrwx---. 2 gpsndlhc sndlhc-cg 4096 Jul  8  2024 RUN3_W2_B2/P33
drwxrwx---. 2 gpsndlhc sndlhc-cg 4096 Jul  8  2024 RUN3_W2_B2/P34
drwxrwx---. 2 gpsndlhc sndlhc-cg 4096 Jul  8  2024 RUN3_W2_B2/P35
drwxrwx---. 2 gpsndlhc sndlhc-cg 4096 Jul  8  2024 RUN3_W2_B2/P36
drwxrwx---. 2 gpsndlhc sndlhc-cg 4096 Jul  8  2024 RUN3_W2_B2/P37
drwxrwx---. 2 gpsndlhc sndlhc-cg 4096 May  6  2024 RUN3_W2_B2/P4
drwxrwx---. 2 gpsndlhc sndlhc-cg 4096 May  6  2024 RUN3_W2_B2/P5
drwxrwx---. 2 gpsndlhc sndlhc-cg 4096 May  8  2024 RUN3_W2_B2/P6
drwxrwx---. 2 gpsndlhc sndlhc-cg 4096 May  9  2024 RUN3_W2_B2/P7
drwxrwx---. 2 gpsndlhc sndlhc-cg 4096 May 10  2024 RUN3_W2_B2/P8
drwxrwx---. 2 gpsndlhc sndlhc-cg 4096 May 16  2024 RUN3_W2_B2/P9
