drwxrwx---. 2 gpsndlhc sndlhc-cg 4096 May  2  2023 RUN1_W5_B1
drwxrwxr-x. 2 gpsndlhc sndlhc-cg 4096 Jan 21  2023 RUN1_W5_B1/FileCorrezioni
drwxrwxr-x. 2 gpsndlhc sndlhc-cg 4096 Jan 21  2023 RUN1_W5_B1/FileCorrezioni/1_flimgen
drwxrwxr-x. 2 gpsndlhc sndlhc-cg 4096 Jan 21  2023 RUN1_W5_B1/FileCorrezioni/2_cormtx
drwxrwxr-x. 2 gpsndlhc sndlhc-cg 4096 Jan 21  2023 RUN1_W5_B1/FileCorrezioni/3_slope
drwxrwxr-x. 2 gpsndlhc sndlhc-cg 4096 Jan 21  2023 RUN1_W5_B1/FileCorrezioni/4_flatview
drwxrwxr-x. 2 gpsndlhc sndlhc-cg 4096 Jan 21  2023 RUN1_W5_B1/FileCorrezioni/5_grainvol
drwxrwx---. 2 gpsndlhc sndlhc-cg 4096 May  2  2023 RUN1_W5_B1/P1
drwxrwx---. 2 gpsndlhc sndlhc-cg 4096 May  2  2023 RUN1_W5_B1/P10
drwxrwx---. 2 gpsndlhc sndlhc-cg 4096 May  2  2023 RUN1_W5_B1/P11
drwxrwx---. 2 gpsndlhc sndlhc-cg 4096 Jan 26  2023 RUN1_W5_B1/P12
drwxrwx---. 2 gpsndlhc sndlhc-cg 4096 Jan 26  2023 RUN1_W5_B1/P13
drwxrwx---. 2 gpsndlhc sndlhc-cg 4096 Jan 27  2023 RUN1_W5_B1/P14
drwxrwx---. 2 gpsndlhc sndlhc-cg 4096 Jan 30  2023 RUN1_W5_B1/P15
drwxrwx---. 2 gpsndlhc sndlhc-cg 4096 Jan 31  2023 RUN1_W5_B1/P16
drwxrwx---. 2 gpsndlhc sndlhc-cg 4096 Feb  1  2023 RUN1_W5_B1/P17
drwxrwx---. 2 gpsndlhc sndlhc-cg 4096 Feb  2  2023 RUN1_W5_B1/P18
drwxrwx---. 2 gpsndlhc sndlhc-cg 4096 Feb  3  2023 RUN1_W5_B1/P19
drwxrwx---. 2 gpsndlhc sndlhc-cg 4096 May  2  2023 RUN1_W5_B1/P2
drwxrwx---. 2 gpsndlhc sndlhc-cg 4096 Feb  6  2023 RUN1_W5_B1/P20
drwxrwx---. 2 gpsndlhc sndlhc-cg 4096 Feb 13  2023 RUN1_W5_B1/P21
drwxrwx---. 2 gpsndlhc sndlhc-cg 4096 Feb  8  2023 RUN1_W5_B1/P22
drwxrwx---. 2 gpsndlhc sndlhc-cg 4096 Feb  9  2023 RUN1_W5_B1/P23
drwxrwx---. 2 gpsndlhc sndlhc-cg 4096 Feb 10  2023 RUN1_W5_B1/P24
drwxrwx---. 2 gpsndlhc sndlhc-cg 4096 Feb 13  2023 RUN1_W5_B1/P25
drwxrwx---. 2 gpsndlhc sndlhc-cg 4096 Feb 14  2023 RUN1_W5_B1/P26
drwxrwx---. 2 gpsndlhc sndlhc-cg 4096 Feb 15  2023 RUN1_W5_B1/P27
drwxrwx---. 2 gpsndlhc sndlhc-cg 4096 Feb 16  2023 RUN1_W5_B1/P28
drwxrwx---. 2 gpsndlhc sndlhc-cg 4096 Feb 17  2023 RUN1_W5_B1/P29
drwxrwx---. 2 gpsndlhc sndlhc-cg 4096 May  2  2023 RUN1_W5_B1/P3
drwxrwx---. 2 gpsndlhc sndlhc-cg 4096 Feb 20  2023 RUN1_W5_B1/P30
drwxrwx---. 2 gpsndlhc sndlhc-cg 4096 Feb 21  2023 RUN1_W5_B1/P31
drwxrwx---. 2 gpsndlhc sndlhc-cg 4096 Feb 22  2023 RUN1_W5_B1/P32
drwxrwx---. 2 gpsndlhc sndlhc-cg 4096 Feb 23  2023 RUN1_W5_B1/P33
drwxrwx---. 2 gpsndlhc sndlhc-cg 4096 Feb 24  2023 RUN1_W5_B1/P34
drwxrwx---. 2 gpsndlhc sndlhc-cg 4096 Feb 27  2023 RUN1_W5_B1/P35
drwxrwx---. 2 gpsndlhc sndlhc-cg 4096 Feb 28  2023 RUN1_W5_B1/P36
drwxrwx---. 2 gpsndlhc sndlhc-cg 4096 Mar  1  2023 RUN1_W5_B1/P37
drwxrwx---. 2 gpsndlhc sndlhc-cg 4096 Mar  2  2023 RUN1_W5_B1/P38
drwxrwx---. 2 gpsndlhc sndlhc-cg 4096 Mar  3  2023 RUN1_W5_B1/P39
drwxrwx---. 2 gpsndlhc sndlhc-cg 4096 May  2  2023 RUN1_W5_B1/P4
drwxrwx---. 2 gpsndlhc sndlhc-cg 4096 Mar  6  2023 RUN1_W5_B1/P40
drwxrwx---. 2 gpsndlhc sndlhc-cg 4096 Mar  7  2023 RUN1_W5_B1/P41
drwxrwx---. 2 gpsndlhc sndlhc-cg 4096 Mar  8  2023 RUN1_W5_B1/P42
drwxrwx---. 2 gpsndlhc sndlhc-cg 4096 Mar  9  2023 RUN1_W5_B1/P43
drwxrwx---. 2 gpsndlhc sndlhc-cg 4096 Mar 10  2023 RUN1_W5_B1/P44
drwxrwx---. 2 gpsndlhc sndlhc-cg 4096 Mar 13  2023 RUN1_W5_B1/P45
drwxrwx---. 2 fmei sndlhc-cg 4096 Mar 14  2023 RUN1_W5_B1/P46
drwxrwx---. 2 fmei sndlhc-cg 4096 Mar 17  2023 RUN1_W5_B1/P47
drwxrwx---. 2 fmei sndlhc-cg 4096 Mar 20  2023 RUN1_W5_B1/P48
drwxrwx---. 2 gpsndlhc sndlhc-cg 4096 Mar 21  2023 RUN1_W5_B1/P49
drwxrwx---. 2 gpsndlhc sndlhc-cg 4096 May  2  2023 RUN1_W5_B1/P5
drwxrwx---. 2 gpsndlhc sndlhc-cg 4096 Mar 22  2023 RUN1_W5_B1/P50
drwxrwx---. 2 gpsndlhc sndlhc-cg 4096 Mar 23  2023 RUN1_W5_B1/P51
drwxrwx---. 2 gpsndlhc sndlhc-cg 4096 Mar 24  2023 RUN1_W5_B1/P52
drwxrwx---. 2 gpsndlhc sndlhc-cg 4096 Mar 27  2023 RUN1_W5_B1/P53
drwxrwx---. 2 gpsndlhc sndlhc-cg 4096 Mar 28  2023 RUN1_W5_B1/P54
drwxrwx---. 2 gpsndlhc sndlhc-cg 4096 Mar 29  2023 RUN1_W5_B1/P55
drwxrwx---. 2 gpsndlhc sndlhc-cg 4096 Mar 30  2023 RUN1_W5_B1/P56
drwxrwx---. 2 gpsndlhc sndlhc-cg 4096 Mar 31  2023 RUN1_W5_B1/P57
drwxrwx---. 2 gpsndlhc sndlhc-cg 4096 May  2  2023 RUN1_W5_B1/P6
drwxrwx---. 2 gpsndlhc sndlhc-cg 4096 May  2  2023 RUN1_W5_B1/P7
drwxrwx---. 2 gpsndlhc sndlhc-cg 4096 May  2  2023 RUN1_W5_B1/P8
drwxrwx---. 2 gpsndlhc sndlhc-cg 4096 May  2  2023 RUN1_W5_B1/P9
