drw-r-----. 2 snd2cern sndlhc-cg 4096 Mar 28  2024 SND_mic4
drw-r-----. 2 snd2cern sndlhc-cg 4096 Jan  6 15:58 SND_mic4/RUN2
drw-r-----. 2 snd2cern sndlhc-cg 4096 Dec 16 10:07 SND_mic4/RUN2/RUN2_W1_B2
dr--r-----. 2 snd2cern sndlhc-cg 4096 Nov 17 22:21 SND_mic4/RUN2/RUN2_W1_B2/P001
dr--r-----. 2 snd2cern sndlhc-cg 4096 Nov 17 22:21 SND_mic4/RUN2/RUN2_W1_B2/P002
dr--r-----. 2 snd2cern sndlhc-cg 4096 Nov 17 22:21 SND_mic4/RUN2/RUN2_W1_B2/P003
dr--r-----. 2 snd2cern sndlhc-cg 4096 Jan  6 11:35 SND_mic4/RUN2/RUN2_W1_B2/P003_rescan
dr--r-----. 2 snd2cern sndlhc-cg 4096 Nov 19 16:40 SND_mic4/RUN2/RUN2_W1_B2/P004
dr--r-----. 2 snd2cern sndlhc-cg 4096 Dec 16 10:42 SND_mic4/RUN2/RUN2_W1_B2/P004_rescan
dr--r-----. 2 snd2cern sndlhc-cg 4096 Nov 19 16:40 SND_mic4/RUN2/RUN2_W1_B2/P005
dr--r-----. 2 snd2cern sndlhc-cg 4096 Nov 19 16:40 SND_mic4/RUN2/RUN2_W1_B2/P006
dr--r-----. 2 snd2cern sndlhc-cg 4096 Dec 16 10:42 SND_mic4/RUN2/RUN2_W1_B2/P006_rescan
dr--r-----. 2 snd2cern sndlhc-cg 4096 Nov 19 16:40 SND_mic4/RUN2/RUN2_W1_B2/P007
dr--r-----. 2 snd2cern sndlhc-cg 4096 Nov 19 16:39 SND_mic4/RUN2/RUN2_W1_B2/P008
dr--r-----. 2 snd2cern sndlhc-cg 4096 Jan  6 11:48 SND_mic4/RUN2/RUN2_W1_B2/P008_rescan
dr--r-----. 2 snd2cern sndlhc-cg 4096 Nov 19 16:39 SND_mic4/RUN2/RUN2_W1_B2/P009
dr--r-----. 2 snd2cern sndlhc-cg 4096 Dec 16 10:42 SND_mic4/RUN2/RUN2_W1_B2/P009_rescan
dr--r-----. 2 snd2cern sndlhc-cg 4096 Nov 19 16:39 SND_mic4/RUN2/RUN2_W1_B2/P010
dr--r-----. 2 snd2cern sndlhc-cg 4096 Dec 16 10:42 SND_mic4/RUN2/RUN2_W1_B2/P010_rescan
dr--r-----. 2 snd2cern sndlhc-cg 4096 Nov 19 16:39 SND_mic4/RUN2/RUN2_W1_B2/P011
dr--r-----. 2 snd2cern sndlhc-cg 4096 Dec 16 10:42 SND_mic4/RUN2/RUN2_W1_B2/P011_rescan
dr--r-----. 2 snd2cern sndlhc-cg 4096 Nov 19 16:39 SND_mic4/RUN2/RUN2_W1_B2/P012
dr--r-----. 2 snd2cern sndlhc-cg 4096 Nov 19 16:39 SND_mic4/RUN2/RUN2_W1_B2/P013
dr--r-----. 2 snd2cern sndlhc-cg 4096 Nov 19 16:39 SND_mic4/RUN2/RUN2_W1_B2/P014
dr--r-----. 2 snd2cern sndlhc-cg 4096 Nov 19 16:39 SND_mic4/RUN2/RUN2_W1_B2/P015
dr--r-----. 2 snd2cern sndlhc-cg 4096 Nov 19 16:39 SND_mic4/RUN2/RUN2_W1_B2/P016
dr--r-----. 2 snd2cern sndlhc-cg 4096 Nov  3 11:41 SND_mic4/RUN2/RUN2_W1_B2/P017
dr--r-----. 2 snd2cern sndlhc-cg 4096 Nov 19 16:39 SND_mic4/RUN2/RUN2_W1_B2/P018
dr--r-----. 2 snd2cern sndlhc-cg 4096 Nov 19 16:39 SND_mic4/RUN2/RUN2_W1_B2/P019
dr--r-----. 2 snd2cern sndlhc-cg 4096 Nov 19 16:39 SND_mic4/RUN2/RUN2_W1_B2/P020
dr--r-----. 2 snd2cern sndlhc-cg 4096 Nov 19 16:39 SND_mic4/RUN2/RUN2_W1_B2/P021
dr--r-----. 2 snd2cern sndlhc-cg 4096 Oct 31 16:41 SND_mic4/RUN2/RUN2_W1_B2/P022
dr--r-----. 2 snd2cern sndlhc-cg 4096 Oct 31 16:42 SND_mic4/RUN2/RUN2_W1_B2/P023
dr--r-----. 2 snd2cern sndlhc-cg 4096 Oct 31 16:42 SND_mic4/RUN2/RUN2_W1_B2/P024
dr--r-----. 2 snd2cern sndlhc-cg 4096 Oct 31 16:42 SND_mic4/RUN2/RUN2_W1_B2/P025
dr--r-----. 2 snd2cern sndlhc-cg 4096 Oct 31 16:42 SND_mic4/RUN2/RUN2_W1_B2/P026
dr--r-----. 2 snd2cern sndlhc-cg 4096 Oct 31 16:42 SND_mic4/RUN2/RUN2_W1_B2/P027
dr--r-----. 2 snd2cern sndlhc-cg 4096 Oct 31 16:42 SND_mic4/RUN2/RUN2_W1_B2/P028
dr--r-----. 2 snd2cern sndlhc-cg 4096 Oct 31 16:42 SND_mic4/RUN2/RUN2_W1_B2/P029
dr--r-----. 2 snd2cern sndlhc-cg 4096 Dec 16 10:41 SND_mic4/RUN2/RUN2_W1_B2/P029_rescan
dr--r-----. 2 snd2cern sndlhc-cg 4096 Oct 31 16:42 SND_mic4/RUN2/RUN2_W1_B2/P030
dr--r-----. 2 snd2cern sndlhc-cg 4096 Oct 31 16:42 SND_mic4/RUN2/RUN2_W1_B2/P031
dr--r-----. 2 snd2cern sndlhc-cg 4096 Oct 31 16:42 SND_mic4/RUN2/RUN2_W1_B2/P032
dr--r-----. 2 snd2cern sndlhc-cg 4096 Oct 31 16:42 SND_mic4/RUN2/RUN2_W1_B2/P033
dr--r-----. 2 snd2cern sndlhc-cg 4096 Oct 31 16:42 SND_mic4/RUN2/RUN2_W1_B2/P034
dr--r-----. 2 snd2cern sndlhc-cg 4096 Oct 31 16:42 SND_mic4/RUN2/RUN2_W1_B2/P035
dr--r-----. 2 snd2cern sndlhc-cg 4096 Oct 17 17:13 SND_mic4/RUN2/RUN2_W1_B2/P036
dr--r-----. 2 snd2cern sndlhc-cg 4096 Oct 17 17:13 SND_mic4/RUN2/RUN2_W1_B2/P037
dr--r-----. 2 snd2cern sndlhc-cg 4096 Oct 17 17:13 SND_mic4/RUN2/RUN2_W1_B2/P038
dr--r-----. 2 snd2cern sndlhc-cg 4096 Dec 10 11:04 SND_mic4/RUN2/RUN2_W1_B2/P039
dr--r-----. 2 snd2cern sndlhc-cg 4096 Dec 19 19:35 SND_mic4/RUN2/RUN2_W1_B2/P039_rescan
dr--r-----. 2 snd2cern sndlhc-cg 4096 Oct 17 17:13 SND_mic4/RUN2/RUN2_W1_B2/P040
dr--r-----. 2 snd2cern sndlhc-cg 4096 Oct 17 17:13 SND_mic4/RUN2/RUN2_W1_B2/P041
dr--r-----. 2 snd2cern sndlhc-cg 4096 Oct 17 17:13 SND_mic4/RUN2/RUN2_W1_B2/P042
dr--r-----. 2 snd2cern sndlhc-cg 4096 Oct 17 17:13 SND_mic4/RUN2/RUN2_W1_B2/P043
dr--r-----. 2 snd2cern sndlhc-cg 4096 Oct 17 17:13 SND_mic4/RUN2/RUN2_W1_B2/P044
dr--r-----. 2 snd2cern sndlhc-cg 4096 Oct 17 17:13 SND_mic4/RUN2/RUN2_W1_B2/P045
dr--r-----. 2 snd2cern sndlhc-cg 4096 Jan  6 12:02 SND_mic4/RUN2/RUN2_W1_B2/P045_rescan
dr--r-----. 2 snd2cern sndlhc-cg 4096 Oct 17 17:13 SND_mic4/RUN2/RUN2_W1_B2/P046
dr--r-----. 2 snd2cern sndlhc-cg 4096 Nov 19 16:40 SND_mic4/RUN2/RUN2_W1_B2/P046_rescan
dr--r-----. 2 snd2cern sndlhc-cg 4096 Oct 17 17:13 SND_mic4/RUN2/RUN2_W1_B2/P047
dr--r-----. 2 snd2cern sndlhc-cg 4096 Oct 17 17:13 SND_mic4/RUN2/RUN2_W1_B2/P048
dr--r-----. 2 snd2cern sndlhc-cg 4096 Oct 17 17:13 SND_mic4/RUN2/RUN2_W1_B2/P049
dr--r-----. 2 snd2cern sndlhc-cg 4096 Nov 19 16:40 SND_mic4/RUN2/RUN2_W1_B2/P049_rescan
dr--r-----. 2 snd2cern sndlhc-cg 4096 Oct 17 17:13 SND_mic4/RUN2/RUN2_W1_B2/P050
dr--r-----. 2 snd2cern sndlhc-cg 4096 Oct 17 17:14 SND_mic4/RUN2/RUN2_W1_B2/P051
dr--r-----. 2 snd2cern sndlhc-cg 4096 Oct 17 17:14 SND_mic4/RUN2/RUN2_W1_B2/P052
dr--r-----. 2 snd2cern sndlhc-cg 4096 Oct 17 17:14 SND_mic4/RUN2/RUN2_W1_B2/P053
dr--r-----. 2 snd2cern sndlhc-cg 4096 Oct 17 17:14 SND_mic4/RUN2/RUN2_W1_B2/P054
dr--r-----. 2 snd2cern sndlhc-cg 4096 Oct 17 17:14 SND_mic4/RUN2/RUN2_W1_B2/P055
dr--r-----. 2 snd2cern sndlhc-cg 4096 Nov 17 22:21 SND_mic4/RUN2/RUN2_W1_B2/P055_rescan
dr--r-----. 2 snd2cern sndlhc-cg 4096 Oct 17 17:14 SND_mic4/RUN2/RUN2_W1_B2/P056
dr--r-----. 2 snd2cern sndlhc-cg 4096 Oct 17 17:14 SND_mic4/RUN2/RUN2_W1_B2/P057
drw-r-----. 2 snd2cern sndlhc-cg 4096 Jan  8 09:45 SND_mic4/RUN2/RUN2_W1_B4
dr--r-----. 2 snd2cern sndlhc-cg 4096 Jan  8 14:06 SND_mic4/RUN2/RUN2_W1_B4/P050
dr--r-----. 2 snd2cern sndlhc-cg 4096 Jan  9 09:58 SND_mic4/RUN2/RUN2_W1_B4/P051
dr--r-----. 2 snd2cern sndlhc-cg 4096 Jan  9 10:15 SND_mic4/RUN2/RUN2_W1_B4/P052
dr--r-----. 2 snd2cern sndlhc-cg 4096 Dec 20 22:18 SND_mic4/RUN2/RUN2_W1_B4/P053
dr--r-----. 2 snd2cern sndlhc-cg 4096 Dec 20 18:38 SND_mic4/RUN2/RUN2_W1_B4/P054
dr--r-----. 2 snd2cern sndlhc-cg 4096 Dec 20 18:38 SND_mic4/RUN2/RUN2_W1_B4/P055
dr--r-----. 2 snd2cern sndlhc-cg 4096 Dec 20 18:38 SND_mic4/RUN2/RUN2_W1_B4/P056
dr--r-----. 2 snd2cern sndlhc-cg 4096 Dec 20 18:37 SND_mic4/RUN2/RUN2_W1_B4/P057
drw-r-----. 2 snd2cern sndlhc-cg 4096 May 31  2024 SND_mic4/RUN2/RUN2_W2_B2
dr--r-----. 2 snd2cern sndlhc-cg 4096 Jun  5  2024 SND_mic4/RUN2/RUN2_W2_B2/P001
dr--r-----. 2 snd2cern sndlhc-cg 4096 Jun  5  2024 SND_mic4/RUN2/RUN2_W2_B2/P002
dr--r-----. 2 snd2cern sndlhc-cg 4096 Jun  5  2024 SND_mic4/RUN2/RUN2_W2_B2/P003
dr--r-----. 2 snd2cern sndlhc-cg 4096 May 30  2024 SND_mic4/RUN2/RUN2_W2_B2/P004
dr--r-----. 2 snd2cern sndlhc-cg 4096 May 30  2024 SND_mic4/RUN2/RUN2_W2_B2/P005
dr--r-----. 2 snd2cern sndlhc-cg 4096 May 30  2024 SND_mic4/RUN2/RUN2_W2_B2/P006
dr--r-----. 2 snd2cern sndlhc-cg 4096 May 30  2024 SND_mic4/RUN2/RUN2_W2_B2/P007
dr--r-----. 2 snd2cern sndlhc-cg 4096 May 24  2024 SND_mic4/RUN2/RUN2_W2_B2/P008
dr--r-----. 2 snd2cern sndlhc-cg 4096 May 24  2024 SND_mic4/RUN2/RUN2_W2_B2/P009
dr--r-----. 2 snd2cern sndlhc-cg 4096 May 24  2024 SND_mic4/RUN2/RUN2_W2_B2/P010
dr--r-----. 2 snd2cern sndlhc-cg 4096 May 24  2024 SND_mic4/RUN2/RUN2_W2_B2/P011
dr--r-----. 2 snd2cern sndlhc-cg 4096 May 24  2024 SND_mic4/RUN2/RUN2_W2_B2/P012
dr--r-----. 2 snd2cern sndlhc-cg 4096 May 17  2024 SND_mic4/RUN2/RUN2_W2_B2/P013
dr--r-----. 2 snd2cern sndlhc-cg 4096 May 17  2024 SND_mic4/RUN2/RUN2_W2_B2/P014
dr--r-----. 2 snd2cern sndlhc-cg 4096 May 17  2024 SND_mic4/RUN2/RUN2_W2_B2/P015
dr--r-----. 2 snd2cern sndlhc-cg 4096 May 17  2024 SND_mic4/RUN2/RUN2_W2_B2/P016
dr--r-----. 2 snd2cern sndlhc-cg 4096 May 17  2024 SND_mic4/RUN2/RUN2_W2_B2/P017
dr--r-----. 2 snd2cern sndlhc-cg 4096 May 24  2024 SND_mic4/RUN2/RUN2_W2_B2/P017_rescan
dr--r-----. 2 snd2cern sndlhc-cg 4096 May 17  2024 SND_mic4/RUN2/RUN2_W2_B2/P018
dr--r-----. 2 snd2cern sndlhc-cg 4096 May 17  2024 SND_mic4/RUN2/RUN2_W2_B2/P019
dr--r-----. 2 snd2cern sndlhc-cg 4096 May 24  2024 SND_mic4/RUN2/RUN2_W2_B2/P019_rescan
dr--r-----. 2 snd2cern sndlhc-cg 4096 May 17  2024 SND_mic4/RUN2/RUN2_W2_B2/P020
dr--r-----. 2 snd2cern sndlhc-cg 4096 May 24  2024 SND_mic4/RUN2/RUN2_W2_B2/P020_rescan
dr--r-----. 2 snd2cern sndlhc-cg 4096 May 17  2024 SND_mic4/RUN2/RUN2_W2_B2/P021
dr--r-----. 2 snd2cern sndlhc-cg 4096 May 17  2024 SND_mic4/RUN2/RUN2_W2_B2/P022
dr--r-----. 2 snd2cern sndlhc-cg 4096 May 17  2024 SND_mic4/RUN2/RUN2_W2_B2/P023
dr--r-----. 2 snd2cern sndlhc-cg 4096 May 10  2024 SND_mic4/RUN2/RUN2_W2_B2/P024
dr--r-----. 2 snd2cern sndlhc-cg 4096 May 17  2024 SND_mic4/RUN2/RUN2_W2_B2/P024_rescan
dr--r-----. 2 snd2cern sndlhc-cg 4096 May 10  2024 SND_mic4/RUN2/RUN2_W2_B2/P025
dr--r-----. 2 snd2cern sndlhc-cg 4096 May 10  2024 SND_mic4/RUN2/RUN2_W2_B2/P026
dr--r-----. 2 snd2cern sndlhc-cg 4096 May 10  2024 SND_mic4/RUN2/RUN2_W2_B2/P027
dr--r-----. 2 snd2cern sndlhc-cg 4096 May 10  2024 SND_mic4/RUN2/RUN2_W2_B2/P028
dr--r-----. 2 snd2cern sndlhc-cg 4096 May 10  2024 SND_mic4/RUN2/RUN2_W2_B2/P029
dr--r-----. 2 snd2cern sndlhc-cg 4096 May 10  2024 SND_mic4/RUN2/RUN2_W2_B2/P030
dr--r-----. 2 snd2cern sndlhc-cg 4096 Apr 30  2024 SND_mic4/RUN2/RUN2_W2_B2/P031
dr--r-----. 2 snd2cern sndlhc-cg 4096 Apr 30  2024 SND_mic4/RUN2/RUN2_W2_B2/P031/error_logs
dr--r-----. 2 snd2cern sndlhc-cg 4096 Apr 30  2024 SND_mic4/RUN2/RUN2_W2_B2/P032
dr--r-----. 2 snd2cern sndlhc-cg 4096 Apr 30  2024 SND_mic4/RUN2/RUN2_W2_B2/P033
dr--r-----. 2 snd2cern sndlhc-cg 4096 Apr 30  2024 SND_mic4/RUN2/RUN2_W2_B2/P034
dr--r-----. 2 snd2cern sndlhc-cg 4096 Apr 30  2024 SND_mic4/RUN2/RUN2_W2_B2/P035
dr--r-----. 2 snd2cern sndlhc-cg 4096 Apr 30  2024 SND_mic4/RUN2/RUN2_W2_B2/P036
dr--r-----. 2 snd2cern sndlhc-cg 4096 Apr 30  2024 SND_mic4/RUN2/RUN2_W2_B2/P037
dr--r-----. 2 snd2cern sndlhc-cg 4096 May 10  2024 SND_mic4/RUN2/RUN2_W2_B2/P038
dr--r-----. 2 snd2cern sndlhc-cg 4096 May 10  2024 SND_mic4/RUN2/RUN2_W2_B2/P039
dr--r-----. 2 snd2cern sndlhc-cg 4096 Apr 30  2024 SND_mic4/RUN2/RUN2_W2_B2/P040
dr--r-----. 2 snd2cern sndlhc-cg 4096 Apr 30  2024 SND_mic4/RUN2/RUN2_W2_B2/P041
dr--r-----. 2 snd2cern sndlhc-cg 4096 Apr 15  2024 SND_mic4/RUN2/RUN2_W2_B2/P041/procsrv1
dr--r-----. 2 snd2cern sndlhc-cg 4096 Apr 30  2024 SND_mic4/RUN2/RUN2_W2_B2/P042
dr--r-----. 2 snd2cern sndlhc-cg 4096 Apr 30  2024 SND_mic4/RUN2/RUN2_W2_B2/P043
dr--r-----. 2 snd2cern sndlhc-cg 4096 May 17  2024 SND_mic4/RUN2/RUN2_W2_B2/P043_rescan
dr--r-----. 2 snd2cern sndlhc-cg 4096 Apr 30  2024 SND_mic4/RUN2/RUN2_W2_B2/P044
dr--r-----. 2 snd2cern sndlhc-cg 4096 Apr 30  2024 SND_mic4/RUN2/RUN2_W2_B2/P045
dr--r-----. 2 snd2cern sndlhc-cg 4096 Apr 30  2024 SND_mic4/RUN2/RUN2_W2_B2/P046
dr--r-----. 2 snd2cern sndlhc-cg 4096 Apr 30  2024 SND_mic4/RUN2/RUN2_W2_B2/P047
dr--r-----. 2 snd2cern sndlhc-cg 4096 Apr 30  2024 SND_mic4/RUN2/RUN2_W2_B2/P048
dr--r-----. 2 snd2cern sndlhc-cg 4096 Apr 30  2024 SND_mic4/RUN2/RUN2_W2_B2/P049
dr--r-----. 2 snd2cern sndlhc-cg 4096 May 10  2024 SND_mic4/RUN2/RUN2_W2_B2/P050
dr--r-----. 2 snd2cern sndlhc-cg 4096 May 10  2024 SND_mic4/RUN2/RUN2_W2_B2/P051
dr--r-----. 2 snd2cern sndlhc-cg 4096 May 10  2024 SND_mic4/RUN2/RUN2_W2_B2/P052
dr--r-----. 2 snd2cern sndlhc-cg 4096 May 10  2024 SND_mic4/RUN2/RUN2_W2_B2/P053
dr--r-----. 2 snd2cern sndlhc-cg 4096 May 10  2024 SND_mic4/RUN2/RUN2_W2_B2/P054
dr--r-----. 2 snd2cern sndlhc-cg 4096 May 10  2024 SND_mic4/RUN2/RUN2_W2_B2/P055
dr--r-----. 2 snd2cern sndlhc-cg 4096 Sep 17 15:48 SND_mic4/RUN2/RUN2_W2_B2/P056
dr--r-----. 2 snd2cern sndlhc-cg 4096 Aug  9 09:54 SND_mic4/RUN2/RUN2_W2_B2/P057
drw-r-----. 2 snd2cern sndlhc-cg 4096 Oct 11 09:01 SND_mic4/RUN2/RUN2_W4_B3
dr--r-----. 2 snd2cern sndlhc-cg 4096 Oct 17 11:27 SND_mic4/RUN2/RUN2_W4_B3/P050
drw-r-----. 2 snd2cern sndlhc-cg 4096 Oct  2 17:45 SND_mic4/RUN2/RUN2_W5_B1
dr--r-----. 2 snd2cern sndlhc-cg 4096 Jun  7  2024 SND_mic4/RUN2/RUN2_W5_B1/P001
dr--r-----. 2 snd2cern sndlhc-cg 4096 Jun  7  2024 SND_mic4/RUN2/RUN2_W5_B1/P002
dr--r-----. 2 snd2cern sndlhc-cg 4096 Jun 18  2024 SND_mic4/RUN2/RUN2_W5_B1/P003
dr--r-----. 2 snd2cern sndlhc-cg 4096 Jun 18  2024 SND_mic4/RUN2/RUN2_W5_B1/P004
dr--r-----. 2 snd2cern sndlhc-cg 4096 Jun 18  2024 SND_mic4/RUN2/RUN2_W5_B1/P005
dr--r-----. 2 snd2cern sndlhc-cg 4096 Jun 21  2024 SND_mic4/RUN2/RUN2_W5_B1/P006
dr--r-----. 2 snd2cern sndlhc-cg 4096 Aug 13 13:59 SND_mic4/RUN2/RUN2_W5_B1/P006_rescan
dr--r-----. 2 snd2cern sndlhc-cg 4096 Jun 18  2024 SND_mic4/RUN2/RUN2_W5_B1/P007
dr--r-----. 2 snd2cern sndlhc-cg 4096 Jun 18  2024 SND_mic4/RUN2/RUN2_W5_B1/P008
dr--r-----. 2 snd2cern sndlhc-cg 4096 Jun 18  2024 SND_mic4/RUN2/RUN2_W5_B1/P009
dr--r-----. 2 snd2cern sndlhc-cg 4096 Jun 18  2024 SND_mic4/RUN2/RUN2_W5_B1/P010
dr--r-----. 2 snd2cern sndlhc-cg 4096 Jun 18  2024 SND_mic4/RUN2/RUN2_W5_B1/P011
dr--r-----. 2 snd2cern sndlhc-cg 4096 Jun 23  2024 SND_mic4/RUN2/RUN2_W5_B1/P011_rescan
dr--r-----. 2 snd2cern sndlhc-cg 4096 Jun 18  2024 SND_mic4/RUN2/RUN2_W5_B1/P012
dr--r-----. 2 snd2cern sndlhc-cg 4096 Jun 18  2024 SND_mic4/RUN2/RUN2_W5_B1/P013
dr--r-----. 2 snd2cern sndlhc-cg 4096 Jun 17  2024 SND_mic4/RUN2/RUN2_W5_B1/P014
dr--r-----. 2 snd2cern sndlhc-cg 4096 Jul 10  2024 SND_mic4/RUN2/RUN2_W5_B1/P015
dr--r-----. 2 snd2cern sndlhc-cg 4096 Jun 20  2024 SND_mic4/RUN2/RUN2_W5_B1/P016
dr--r-----. 2 snd2cern sndlhc-cg 4096 Jul 10  2024 SND_mic4/RUN2/RUN2_W5_B1/P017
dr--r-----. 2 snd2cern sndlhc-cg 4096 Aug 13 13:59 SND_mic4/RUN2/RUN2_W5_B1/P017_rescan
dr--r-----. 2 snd2cern sndlhc-cg 4096 Jul 10  2024 SND_mic4/RUN2/RUN2_W5_B1/P018
dr--r-----. 2 snd2cern sndlhc-cg 4096 Aug 13 13:59 SND_mic4/RUN2/RUN2_W5_B1/P018_rescan
dr--r-----. 2 snd2cern sndlhc-cg 4096 Jul 10  2024 SND_mic4/RUN2/RUN2_W5_B1/P019
dr--r-----. 2 snd2cern sndlhc-cg 4096 Aug 13 13:59 SND_mic4/RUN2/RUN2_W5_B1/P019_rescan
dr--r-----. 2 snd2cern sndlhc-cg 4096 Jul 10  2024 SND_mic4/RUN2/RUN2_W5_B1/P020
dr--r-----. 2 snd2cern sndlhc-cg 4096 Oct 17 16:57 SND_mic4/RUN2/RUN2_W5_B1/P020_rescan
dr--r-----. 2 snd2cern sndlhc-cg 4096 Jul 10  2024 SND_mic4/RUN2/RUN2_W5_B1/P020_rescan/mic4
dr--r-----. 2 snd2cern sndlhc-cg 4096 Jul 10  2024 SND_mic4/RUN2/RUN2_W5_B1/P020_rescan/procsrv1
dr--r-----. 2 snd2cern sndlhc-cg 4096 Jul 10  2024 SND_mic4/RUN2/RUN2_W5_B1/P021
dr--r-----. 2 snd2cern sndlhc-cg 4096 Oct 30 14:22 SND_mic4/RUN2/RUN2_W5_B1/P021_rescan
dr--r-----. 2 snd2cern sndlhc-cg 4096 Jul 18 10:25 SND_mic4/RUN2/RUN2_W5_B1/P022
dr--r-----. 2 snd2cern sndlhc-cg 4096 Oct 30 16:07 SND_mic4/RUN2/RUN2_W5_B1/P022_rescan
dr--r-----. 2 snd2cern sndlhc-cg 4096 Jul 22 11:41 SND_mic4/RUN2/RUN2_W5_B1/P023
dr--r-----. 2 snd2cern sndlhc-cg 4096 Jul 22 12:11 SND_mic4/RUN2/RUN2_W5_B1/P024
dr--r-----. 2 snd2cern sndlhc-cg 4096 Oct 30 14:23 SND_mic4/RUN2/RUN2_W5_B1/P024_rescan
dr--r-----. 2 snd2cern sndlhc-cg 4096 Jul 26 11:26 SND_mic4/RUN2/RUN2_W5_B1/P024_rescan_2
dr--r-----. 2 snd2cern sndlhc-cg 4096 Jul 10  2024 SND_mic4/RUN2/RUN2_W5_B1/P025
dr--r-----. 2 snd2cern sndlhc-cg 4096 Oct  2 17:47 SND_mic4/RUN2/RUN2_W5_B1/P025_rescan
dr--r-----. 2 snd2cern sndlhc-cg 4096 Jul 10  2024 SND_mic4/RUN2/RUN2_W5_B1/P026
dr--r-----. 2 snd2cern sndlhc-cg 4096 Oct 17 16:57 SND_mic4/RUN2/RUN2_W5_B1/P026_rescan
dr--r-----. 2 snd2cern sndlhc-cg 4096 Jul 10  2024 SND_mic4/RUN2/RUN2_W5_B1/P027
dr--r-----. 2 snd2cern sndlhc-cg 4096 Aug 13 14:00 SND_mic4/RUN2/RUN2_W5_B1/P027_rescan
dr--r-----. 2 snd2cern sndlhc-cg 4096 Jul 10  2024 SND_mic4/RUN2/RUN2_W5_B1/P028
dr--r-----. 2 snd2cern sndlhc-cg 4096 Aug 13 14:00 SND_mic4/RUN2/RUN2_W5_B1/P028_rescan
dr--r-----. 2 snd2cern sndlhc-cg 4096 Aug 13 14:00 SND_mic4/RUN2/RUN2_W5_B1/P029
dr--r-----. 2 snd2cern sndlhc-cg 4096 Jul 25 02:03 SND_mic4/RUN2/RUN2_W5_B1/P030
dr--r-----. 2 snd2cern sndlhc-cg 4096 Aug 13 14:01 SND_mic4/RUN2/RUN2_W5_B1/P031
dr--r-----. 2 snd2cern sndlhc-cg 4096 Aug 13 14:01 SND_mic4/RUN2/RUN2_W5_B1/P032
dr--r-----. 2 snd2cern sndlhc-cg 4096 Aug 13 14:01 SND_mic4/RUN2/RUN2_W5_B1/P033
dr--r-----. 2 snd2cern sndlhc-cg 4096 Aug 13 14:01 SND_mic4/RUN2/RUN2_W5_B1/P034
dr--r-----. 2 snd2cern sndlhc-cg 4096 Aug 13 14:01 SND_mic4/RUN2/RUN2_W5_B1/P035
dr--r-----. 2 snd2cern sndlhc-cg 4096 Aug 13 14:01 SND_mic4/RUN2/RUN2_W5_B1/P036
dr--r-----. 2 snd2cern sndlhc-cg 4096 Aug 13 14:01 SND_mic4/RUN2/RUN2_W5_B1/P037
dr--r-----. 2 snd2cern sndlhc-cg 4096 Oct  2 17:46 SND_mic4/RUN2/RUN2_W5_B1/P038
dr--r-----. 2 snd2cern sndlhc-cg 4096 Oct  2 17:46 SND_mic4/RUN2/RUN2_W5_B1/P039
dr--r-----. 2 snd2cern sndlhc-cg 4096 Oct  2 17:46 SND_mic4/RUN2/RUN2_W5_B1/P040
dr--r-----. 2 snd2cern sndlhc-cg 4096 Oct  2 17:45 SND_mic4/RUN2/RUN2_W5_B1/P041
dr--r-----. 2 snd2cern sndlhc-cg 4096 Sep 20 10:30 SND_mic4/RUN2/RUN2_W5_B1/P041_test
dr--r-----. 2 snd2cern sndlhc-cg 4096 Oct  2 17:45 SND_mic4/RUN2/RUN2_W5_B1/P042
dr--r-----. 2 snd2cern sndlhc-cg 4096 Oct  2 17:45 SND_mic4/RUN2/RUN2_W5_B1/P043
dr--r-----. 2 snd2cern sndlhc-cg 4096 Oct  2 17:45 SND_mic4/RUN2/RUN2_W5_B1/P044
dr--r-----. 2 snd2cern sndlhc-cg 4096 Sep 19 11:34 SND_mic4/RUN2/RUN2_W5_B1/P047
dr--r-----. 2 snd2cern sndlhc-cg 4096 Sep 14 08:09 SND_mic4/RUN2/RUN2_W5_B1/P047_test
dr--r-----. 2 snd2cern sndlhc-cg 4096 Oct  2 17:45 SND_mic4/RUN2/RUN2_W5_B1/P049
dr--r-----. 2 snd2cern sndlhc-cg 4096 Sep 25 09:20 SND_mic4/RUN2/RUN2_W5_B1/P050
dr--r-----. 2 snd2cern sndlhc-cg 4096 Sep 29 11:14 SND_mic4/RUN2/RUN2_W5_B1/P051
dr--r-----. 2 snd2cern sndlhc-cg 4096 Oct  2 17:45 SND_mic4/RUN2/RUN2_W5_B1/P052
dr--r-----. 2 snd2cern sndlhc-cg 4096 Oct  2 17:45 SND_mic4/RUN2/RUN2_W5_B1/P053
dr--r-----. 2 snd2cern sndlhc-cg 4096 Oct  2 17:45 SND_mic4/RUN2/RUN2_W5_B1/P054
dr--r-----. 2 snd2cern sndlhc-cg 4096 Sep 29 11:14 SND_mic4/RUN2/RUN2_W5_B1/P055
dr--r-----. 2 snd2cern sndlhc-cg 4096 Sep 30 10:37 SND_mic4/RUN2/RUN2_W5_B1/P056
dr--r-----. 2 snd2cern sndlhc-cg 4096 Sep 30 10:37 SND_mic4/RUN2/RUN2_W5_B1/P057
dr--r-----. 2 snd2cern sndlhc-cg 4096 Jun 23  2024 SND_mic4/RUN2/RUN2_W5_B1/p011_rescan
drw-r-----. 2 snd2cern sndlhc-cg 4096 Feb  1  2024 SND_mic4/RUN3
drw-r-----. 2 snd2cern sndlhc-cg 4096 Jun  4  2024 SND_mic4/RUN3/RUN3_W1_B2
dr--r-----. 2 snd2cern sndlhc-cg 4096 Mar 19  2024 SND_mic4/RUN3/RUN3_W1_B2/P001
dr--r-----. 2 snd2cern sndlhc-cg 4096 Mar 19  2024 SND_mic4/RUN3/RUN3_W1_B2/P002
dr--r-----. 2 snd2cern sndlhc-cg 4096 Jan 12  2024 SND_mic4/RUN3/RUN3_W1_B2/P003
dr--r-----. 2 snd2cern sndlhc-cg 4096 Jan 16  2024 SND_mic4/RUN3/RUN3_W1_B2/P004
dr--r-----. 2 snd2cern sndlhc-cg 4096 Mar 19  2024 SND_mic4/RUN3/RUN3_W1_B2/P005
dr--r-----. 2 snd2cern sndlhc-cg 4096 Mar 19  2024 SND_mic4/RUN3/RUN3_W1_B2/P006
dr--r-----. 2 snd2cern sndlhc-cg 4096 Mar 19  2024 SND_mic4/RUN3/RUN3_W1_B2/P007
dr--r-----. 2 snd2cern sndlhc-cg 4096 Mar 19  2024 SND_mic4/RUN3/RUN3_W1_B2/P008
dr--r-----. 2 snd2cern sndlhc-cg 4096 Mar 19  2024 SND_mic4/RUN3/RUN3_W1_B2/P009
dr--r-----. 2 snd2cern sndlhc-cg 4096 Jan 15  2024 SND_mic4/RUN3/RUN3_W1_B2/P01
dr--r-----. 2 snd2cern sndlhc-cg 4096 Jun  3  2024 SND_mic4/RUN3/RUN3_W1_B2/P010
dr--r-----. 2 snd2cern sndlhc-cg 4096 Jun  4  2024 SND_mic4/RUN3/RUN3_W1_B2/P011
dr--r-----. 2 snd2cern sndlhc-cg 4096 Feb 18  2024 SND_mic4/RUN3/RUN3_W1_B2/P012
dr--r-----. 2 snd2cern sndlhc-cg 4096 Jun  4  2024 SND_mic4/RUN3/RUN3_W1_B2/P013
dr--r-----. 2 snd2cern sndlhc-cg 4096 Jun  4  2024 SND_mic4/RUN3/RUN3_W1_B2/P014
dr--r-----. 2 snd2cern sndlhc-cg 4096 Jun  4  2024 SND_mic4/RUN3/RUN3_W1_B2/P015
dr--r-----. 2 snd2cern sndlhc-cg 4096 Jun  4  2024 SND_mic4/RUN3/RUN3_W1_B2/P016
dr--r-----. 2 snd2cern sndlhc-cg 4096 Jan 15  2024 SND_mic4/RUN3/RUN3_W1_B2/P02
dr--r-----. 2 snd2cern sndlhc-cg 4096 Jan 12  2024 SND_mic4/RUN3/RUN3_W1_B2/P03
dr--r-----. 2 snd2cern sndlhc-cg 4096 Jan 16  2024 SND_mic4/RUN3/RUN3_W1_B2/P04
dr--r-----. 2 snd2cern sndlhc-cg 4096 Jan 20  2024 SND_mic4/RUN3/RUN3_W1_B2/P05
dr--r-----. 2 snd2cern sndlhc-cg 4096 Jan 24  2024 SND_mic4/RUN3/RUN3_W1_B2/P057_mic2
dr--r-----. 2 snd2cern sndlhc-cg 4096 Jan 22  2024 SND_mic4/RUN3/RUN3_W1_B2/P06
dr--r-----. 2 snd2cern sndlhc-cg 4096 Jan 24  2024 SND_mic4/RUN3/RUN3_W1_B2/P07
